G04 DipTrace 3.3.1.0*
G04 BoardOutline.gbr*
%MOMM*%
G04 #@! TF.FileFunction,Profile*
G04 #@! TF.Part,Single*
%ADD11C,0.14*%
%FSLAX35Y35*%
G04*
G71*
G90*
G75*
G01*
G04 BoardOutline*
%LPD*%
X6300000Y3800000D2*
D11*
Y1000000D1*
X1000000D1*
Y3800000D1*
X6300000D1*
M02*
