G04 DipTrace 3.3.1.0*
G04 Top.gbr*
%MOMM*%
G04 #@! TF.FileFunction,Copper,L1,Top*
G04 #@! TF.Part,Single*
%AMOUTLINE0*
4,1,4,
0.3048,0.3302,
0.3048,-0.3302,
-0.3048,-0.3302,
-0.3048,0.3302,
0.3048,0.3302,
0*%
%AMOUTLINE3*
4,1,4,
-0.3048,-0.3302,
-0.3048,0.3302,
0.3048,0.3302,
0.3048,-0.3302,
-0.3048,-0.3302,
0*%
%AMOUTLINE6*
4,1,4,
-0.0134,-0.44917,
-0.44667,0.04924,
0.0134,0.44917,
0.44667,-0.04924,
-0.0134,-0.44917,
0*%
%AMOUTLINE9*
4,1,4,
0.0134,0.44917,
0.44667,-0.04924,
-0.0134,-0.44917,
-0.44667,0.04924,
0.0134,0.44917,
0*%
%AMOUTLINE12*
4,1,4,
0.44718,0.0443,
0.00844,-0.44929,
-0.44718,-0.0443,
-0.00844,0.44929,
0.44718,0.0443,
0*%
%AMOUTLINE15*
4,1,4,
-0.3302,0.3048,
0.3302,0.3048,
0.3302,-0.3048,
-0.3302,-0.3048,
-0.3302,0.3048,
0*%
%AMOUTLINE18*
4,1,4,
-0.44718,-0.0443,
-0.00844,0.44929,
0.44718,0.0443,
0.00844,-0.44929,
-0.44718,-0.0443,
0*%
%AMOUTLINE21*
4,1,16,
-0.5,-0.75,
-0.45047,-0.96693,
-0.31173,-1.1409,
-0.11127,-1.23747,
0.11127,-1.23743,
0.31177,-1.1409,
0.4505,-0.96693,
0.49997,-0.75,
0.5,0.75,
0.45047,0.96693,
0.31173,1.1409,
0.11127,1.23747,
-0.11127,1.23743,
-0.31177,1.1409,
-0.4505,0.96693,
-0.49997,0.75,
-0.5,-0.75,
0*%
%AMOUTLINE24*
4,1,6,
0.2032,-0.72393,
-0.2032,-0.7239,
-0.4191,-0.381,
-0.4191,0.7239,
0.4191,0.7239,
0.4191,-0.381,
0.2032,-0.72393,
0*%
%AMOUTLINE27*
4,1,6,
0.72393,0.2032,
0.7239,-0.2032,
0.381,-0.4191,
-0.7239,-0.4191,
-0.7239,0.4191,
0.381,0.4191,
0.72393,0.2032,
0*%
%AMOUTLINE30*
4,1,6,
-0.2032,0.7239,
0.2032,0.7239,
0.4191,0.381,
0.4191,-0.7239,
-0.4191,-0.7239,
-0.4191,0.381,
-0.2032,0.7239,
0*%
%AMOUTLINE33*
4,1,16,
-0.5842,-0.4318,
-0.508,-0.6858,
-0.3556,-0.889,
-0.127,-0.9906,
0.127,-0.9906,
0.3556,-0.889,
0.508,-0.6858,
0.5842,-0.4318,
0.5842,0.4318,
0.508,0.6858,
0.3556,0.889,
0.127,0.9906,
-0.127,0.9906,
-0.3556,0.889,
-0.508,0.6858,
-0.5842,0.4318,
-0.5842,-0.4318,
0*%
G04 #@! TA.AperFunction,ViaPad*
%ADD14C,0.508*%
G04 #@! TA.AperFunction,Conductor*
%ADD15C,0.178*%
%ADD16C,0.254*%
%ADD17C,0.6096*%
G04 #@! TA.AperFunction,CopperBalancing*
%ADD18C,0.635*%
G04 #@! TA.AperFunction,Conductor*
%ADD19C,0.6*%
%ADD20C,0.1778*%
G04 #@! TA.AperFunction,CopperBalancing*
%ADD21C,0.33*%
%ADD25R,0.8X0.8*%
G04 #@! TA.AperFunction,ComponentPad*
%ADD26R,1.8X1.8*%
%ADD27O,1.4X1.8*%
%ADD29R,1.1X0.6*%
%ADD31R,0.29X0.315*%
%ADD33R,0.6X2.0*%
G04 #@! TA.AperFunction,ComponentPad*
%ADD34R,1.1684X1.9812*%
%ADD56OUTLINE0*%
%ADD59OUTLINE3*%
%ADD62OUTLINE6*%
%ADD65OUTLINE9*%
%ADD68OUTLINE12*%
%ADD71OUTLINE15*%
%ADD74OUTLINE18*%
%ADD77OUTLINE21*%
%ADD80OUTLINE24*%
%ADD83OUTLINE27*%
%ADD86OUTLINE30*%
G04 #@! TA.AperFunction,ComponentPad*
%ADD89OUTLINE33*%
%FSLAX35Y35*%
G04*
G71*
G90*
G75*
G01*
G04 Top*
%LPD*%
X2520890Y1355583D2*
D14*
X2997873Y1832567D1*
X2981349Y1849091D1*
X1768721Y1681162D2*
X1845383Y1589180D1*
X1844354Y1591382D1*
X1918110Y1501167D1*
X1919391Y1503726D1*
X1992417Y1414230D1*
X1994337Y1417429D1*
X2520890Y1355583D2*
X2525827Y1373873D1*
X2511837Y1353870D1*
X2047720Y1371553D1*
X1919391Y1503726D1*
X1604580Y1510353D2*
X1664070D1*
X1745099Y1591382D1*
X1844354D1*
X1098403Y2589683D2*
D15*
X1096377D1*
Y2455763D1*
X1599457Y2456337D2*
D14*
Y2388017D1*
D15*
X1380510D1*
X1153677D1*
X1096377Y2445317D1*
Y2455763D1*
X1768721Y1681162D2*
D14*
X1739330Y1710553D1*
Y2248143D1*
X1599457Y2388017D1*
X1601910Y2630737D2*
Y2775010D1*
X1732163Y2905263D1*
Y3357317D1*
X1737467D1*
X1356107Y2233810D2*
D15*
X1358143D1*
Y2281743D1*
X1380387Y2303987D1*
X1406107Y2278267D1*
Y2233810D1*
X1380413Y2338433D2*
X1380387Y2338407D1*
Y2303987D1*
X1599457Y2456337D2*
D14*
X1601910Y2458790D1*
Y2630737D1*
X1375183Y1885000D2*
X1427533D1*
Y1884667D1*
X1483530D1*
X1375517Y1772790D2*
X1427533D1*
Y1772343D1*
X1482427D1*
X1427533Y1884667D2*
Y1772343D1*
X1406107Y2083810D2*
D15*
Y2042650D1*
X1421663Y2027093D1*
X1432620D1*
X1444260D1*
X1456107Y2038940D1*
Y2083810D1*
X1432620Y2027093D2*
Y1915730D1*
X1427533Y1910643D1*
Y1884667D1*
X5644363Y1655123D2*
D14*
X5646190Y1653297D1*
X5692873D1*
X5752107D1*
X5644640Y1542290D2*
X5692873D1*
Y1542977D1*
X5751407D1*
X5692873Y1653297D2*
Y1542977D1*
X5563957Y1874513D2*
Y1803287D1*
X5644363Y1722880D1*
Y1655123D1*
X5817957Y1874513D2*
X5817007Y1873563D1*
Y1783390D1*
X5752107Y1718490D1*
Y1653297D1*
X5309957Y3424513D2*
X5563957Y3170513D1*
Y2079357D1*
Y1874513D1*
X1380510Y2338530D2*
D15*
Y2388017D1*
X2520890Y1355583D2*
D14*
X2532230Y1344243D1*
Y1253257D1*
X2618097Y1167390D1*
X4351477D1*
X4453540Y1269453D1*
Y1854947D1*
X4677950Y2079357D1*
X5563957D1*
X1604580Y1510353D2*
X1548157D1*
X1480967Y1577543D1*
Y1657503D1*
Y1735563D1*
X1444187Y1772343D1*
X1482427D1*
X4320890Y1355583D2*
D16*
Y1544553D1*
X4231026Y1634418D1*
Y1847567D1*
X2856382Y1849091D2*
X2856927D1*
Y1972790D1*
X4231029Y3158207D2*
X4236483D1*
Y3000000D1*
X4199993D1*
X2856382Y3158207D2*
X2862597Y3136643D1*
Y3000000D1*
X2799997D1*
X2606446Y3158207D2*
Y3000000D1*
X2599997D1*
X2112075Y3592536D2*
D17*
X2073052Y3553513D1*
X2037010Y3498290D1*
X2037012Y3506476D1*
X1497857Y2456337D2*
Y2522623D1*
D18*
X1474910Y2545570D1*
D19*
Y2630737D1*
Y2688953D1*
D18*
Y2758180D1*
Y2965453D1*
D19*
Y3170737D1*
X1748797Y3698747D2*
D17*
Y3696240D1*
X1836577D1*
X1834483Y3700243D1*
X1220910Y3170737D2*
D19*
Y3012303D1*
D18*
X1267760Y2965453D1*
X1346630D1*
X1474910D1*
X1347910Y3170737D2*
D19*
X1346630Y3036557D1*
D18*
Y2965453D1*
X1301110Y2183817D2*
D15*
X1251893D1*
X1238510Y2170433D1*
Y2133810D1*
Y2025820D1*
X1272730D1*
X1306107D1*
X1344200D1*
X1356107Y2037727D1*
Y2083810D1*
X1301107Y2133810D2*
X1238510D1*
X1306107Y2083810D2*
Y2025820D1*
X1272730D2*
X1277067Y2021483D1*
Y1962770D1*
X1273583D1*
Y1885000D1*
X1273917Y1884667D1*
Y1772790D1*
X1585130Y1884667D2*
X1584027Y1883563D1*
Y1772343D1*
X1845399Y1747818D2*
X1921033Y1672184D1*
Y1658038D1*
X1996069Y1583001D1*
Y1570381D1*
X2071016Y1495434D1*
Y1484084D1*
X5853707Y1653297D2*
X5853007Y1652597D1*
Y1597103D1*
Y1542977D1*
X5542763Y1655123D2*
X5543040Y1654847D1*
Y1592800D1*
Y1542290D1*
X5309957Y1874513D2*
X5312147Y1872323D1*
Y1801710D1*
X5458733Y1655123D1*
X5542763D1*
X4231029Y3158207D2*
X4497335Y3424513D1*
X4801957D1*
X5853007Y1597103D2*
X5854890Y1598987D1*
X5917630D1*
X5543040Y1592800D2*
X5540900Y1594940D1*
X5450323D1*
X2073052Y3553513D2*
X2014147Y3606807D1*
X1350853Y2973037D2*
D18*
X1346630Y2965453D1*
X1477357Y2969020D2*
X1474910Y2965453D1*
X1483380Y2758180D2*
X1474910D1*
X1238070Y2027177D2*
D15*
X1238510Y2025820D1*
X1278093Y1962770D2*
X1277067D1*
X1584027Y1883563D2*
Y1970703D1*
X1582703D1*
X2112075Y3592536D2*
X2146382Y3626843D1*
X2220520D1*
X2222223Y3625140D1*
X2112075Y3592536D2*
X2130935Y3611397D1*
X2157037D1*
X2187463D1*
X2112075Y3592536D2*
X2118139Y3598600D1*
X2149717D1*
X2157037Y3605920D1*
Y3611397D1*
X1960873Y3556123D2*
X2010520Y3506476D1*
X2037012D1*
X1731040Y1421643D2*
D14*
X1751574D1*
X1794991Y1465060D1*
X1817607D1*
X1272700Y1658000D2*
D15*
X1273917Y1659217D1*
D14*
Y1697783D1*
Y1772790D1*
X1272197Y1697783D2*
D15*
X1273917D1*
X1584027Y1772343D2*
X1582567Y1770883D1*
Y1657503D1*
D14*
X1577264Y1626383D1*
X1598079Y1581672D1*
X1446300Y1130050D2*
X1473843Y1157593D1*
Y1319070D1*
Y1415353D1*
X1334580D1*
X1473843D2*
D15*
X1563020Y1421643D1*
X1630587D1*
X1731040D1*
X1334580Y1415353D2*
D14*
Y1428967D1*
X1232696D1*
X1219757Y1441906D1*
X1472460Y1392230D2*
D15*
X1473843Y1415353D1*
X1470400Y1319070D2*
X1473843D1*
X1563020Y1412187D2*
Y1421643D1*
X1630587Y1410780D2*
Y1421643D1*
X1731040D2*
D14*
X1757167Y1395517D1*
X1812770D1*
X1817607Y1465060D2*
X1812770Y1460223D1*
Y1395517D1*
X1770573Y1508600D2*
X1778648D1*
X1731040Y1460992D1*
Y1421643D1*
X1770573Y1508600D2*
X1814113Y1465060D1*
X1817607D1*
X1217300Y1388860D2*
X1223321Y1394881D1*
X1334580D1*
Y1415353D1*
X1582567Y1657503D2*
X1600937Y1651336D1*
X1648451Y1603175D1*
X1598079Y1581672D2*
D15*
Y1586007D1*
X1600567Y1577577D1*
X1648451Y1603175D1*
X4801957Y1874513D2*
Y1737753D1*
X4609127Y1544923D1*
Y1341410D1*
X5371127D2*
X5381303Y1351587D1*
Y1423783D1*
X5055957Y1749130D1*
Y1874513D1*
X1646690Y3470013D2*
Y3416540D1*
X1587467Y3357317D1*
X1647197Y3698747D2*
X1627053D1*
Y3584830D1*
X1598870D1*
X2981349Y3158207D2*
Y3323734D1*
X2919733Y3385350D1*
X2691123D1*
X2520890Y3555583D1*
X3231286Y3158207D2*
Y3245188D1*
X2920890Y3555583D1*
X2037285Y3356024D2*
Y3363314D1*
X2112948Y3438977D1*
X2188012Y3525037D2*
Y3514040D1*
X2112948Y3438977D1*
X2188012Y3525037D2*
X2219485Y3493563D1*
X2309123D1*
X3120890Y3555583D2*
Y3543100D1*
X3356253Y3307737D1*
Y3158207D1*
X3981092Y3158204D2*
Y3252886D1*
X4074383Y3346177D1*
X4161117D1*
X4320890Y3505950D1*
Y3555583D1*
X3606189Y3158207D2*
Y3470284D1*
X3520890Y3555583D1*
Y1355583D2*
Y1700987D1*
X3606189Y1786286D1*
Y1849091D1*
X3120890Y1355583D2*
X3134617D1*
Y1454050D1*
X3352490Y1671923D1*
Y1845328D1*
X3356253Y1849091D1*
X3481219Y3158207D2*
Y3167798D1*
X3471730Y3177287D1*
Y3404743D1*
X3320890Y3555583D1*
X1748290Y3470013D2*
X1796263D1*
X2009637Y3683387D1*
X3193087D1*
X3320890Y3555583D1*
X3731156Y3158207D2*
X3726760D1*
Y3223760D1*
X3914950Y3411950D1*
Y3549643D1*
X3920890Y3555583D1*
X1748870Y3584830D2*
X1856220D1*
X1992947Y3721557D1*
X3794353D1*
X3920890Y3595020D1*
Y3555583D1*
X2920890Y1355583D2*
X2927793D1*
Y1480383D1*
X3142357Y1694947D1*
X3144220Y1693083D1*
X3265757Y1814620D1*
X3231286Y1849091D1*
X3106313Y3158207D2*
Y3284517D1*
X2969507Y3421323D1*
X2798697D1*
X2693343Y3526677D1*
Y3555583D1*
X2720890D1*
X1347910Y2630737D2*
X1342173D1*
Y2464827D1*
X1207040D1*
X1197977Y2455763D1*
X1456107Y2233810D2*
X1459427D1*
Y2337800D1*
X3720890Y1355583D2*
Y1388057D1*
X3732020Y1399187D1*
Y1785213D1*
X3740540Y1776693D1*
Y1849091D1*
X3731156D1*
X1098403Y2691283D2*
Y2728310D1*
X1145677Y2775583D1*
X1223020D1*
Y2632847D1*
X1220910Y2630737D1*
X1306107Y2233810D2*
X1212473D1*
Y2229900D1*
X4120890Y1355583D2*
Y1487590D1*
X3857437Y1751043D1*
Y1847780D1*
X3856126Y1849091D1*
X2208300Y1130050D2*
X2086767Y1251583D1*
X2009773D1*
X1881923Y1379433D1*
X1667470Y1704850D2*
Y2026393D1*
X1510053Y2183810D1*
X1461707D1*
X2720890Y1355583D2*
X2749080D1*
Y1412750D1*
X2972338Y1636008D1*
X2969380Y1638967D1*
X3116707Y1786293D1*
Y1838700D1*
X3106316Y1849091D1*
X1961348Y3423523D2*
D20*
X1877537Y3347903D1*
X1334580Y1510353D2*
D14*
X1182293D1*
X1127107Y1455167D1*
Y1320353D1*
Y1130050D1*
X1192300D1*
X1334580Y1320353D2*
X1127107D1*
X1334580Y1510353D2*
X1361938Y1537711D1*
Y1574908D1*
X1374300Y1587270D1*
Y1658000D1*
X1604580Y1320353D2*
D15*
X1604890Y1320043D1*
X1731040D1*
D14*
X5917630Y1598987D3*
X5450323Y1594940D3*
X2014147Y3606807D3*
X2309123Y3493563D3*
X3142357Y1694947D3*
X1342173Y2464827D3*
X1459427Y2337800D3*
X1223020Y2775583D3*
X1212473Y2229900D3*
X1881923Y1379433D3*
X1667470Y1704850D3*
X2972338Y1636008D3*
X1877537Y3347903D3*
X1380413Y2338433D3*
X1834483Y3700243D3*
X2199997Y3000000D3*
Y2800003D3*
X2856927Y1972790D3*
X2799997Y3000000D3*
X2599997D3*
X4199993D3*
X1350853Y2973037D3*
X2199997Y2600003D3*
X1477357Y2969020D3*
X1483380Y2758180D3*
X1355200Y2862553D3*
X2199997Y2400003D3*
Y2200003D3*
Y2000003D3*
Y1800003D3*
X2210670Y1696050D3*
X1224100Y2855913D3*
X1999997Y2800003D3*
Y2600003D3*
Y2400003D3*
Y2200003D3*
Y2000003D3*
Y1800003D3*
X1800000Y2600003D3*
Y2400003D3*
X1822443Y2196263D3*
X1828663Y2001513D3*
X2396440Y1688937D3*
X2399997Y1800003D3*
Y2000003D3*
Y2200003D3*
Y2400003D3*
Y2600003D3*
Y2800003D3*
Y3000000D3*
Y3200000D3*
X2599997Y1800003D3*
X2596440Y1692493D3*
X2999997Y3000000D3*
X3199997D3*
X3399997D3*
X3599993D3*
X3799993D3*
X3999993D3*
X3199997Y2800003D3*
Y2600003D3*
X2999997Y2400003D3*
Y2200003D3*
Y2000003D3*
X3199997Y2400003D3*
Y2200003D3*
Y2000003D3*
X3399997Y2800003D3*
Y2600003D3*
Y2400003D3*
Y2200003D3*
Y2000003D3*
X3599993Y2800003D3*
Y2600003D3*
Y2400003D3*
Y2200003D3*
Y2000003D3*
X3799993Y2800003D3*
Y2600003D3*
Y2400003D3*
Y2200003D3*
Y2000003D3*
X3999993Y2800003D3*
Y2600003D3*
Y2400003D3*
Y2200003D3*
Y2000003D3*
X4199993Y2800003D3*
Y2600003D3*
Y2400003D3*
Y2200003D3*
Y2000003D3*
X1238070Y2027177D3*
X1278093Y1962770D3*
X1582703Y1970703D3*
X1464217Y1476723D3*
X1817607Y1465060D3*
X1472460Y1392230D3*
X2145583Y1594853D3*
X4666360Y3149800D3*
Y2949800D3*
Y2749800D3*
Y2549800D3*
Y2349800D3*
X4866360Y3149800D3*
Y2949800D3*
Y2749800D3*
Y2549800D3*
Y2349800D3*
X5066357Y3149800D3*
Y2949800D3*
Y2749800D3*
Y2549800D3*
Y2349800D3*
X5266357Y3149800D3*
Y2949800D3*
Y2749800D3*
Y2549800D3*
Y2349800D3*
X5466357Y3149800D3*
Y2949800D3*
Y2749800D3*
Y2549800D3*
Y2349800D3*
X5666357Y3149800D3*
Y2949800D3*
Y2749800D3*
Y2549800D3*
Y2349800D3*
X5831270Y3149097D3*
Y2949097D3*
Y2749097D3*
Y2549097D3*
Y2349097D3*
X6031270Y3149097D3*
Y2949097D3*
Y2749097D3*
Y2549097D3*
Y2349097D3*
X6231270Y3149097D3*
Y2949097D3*
Y2749097D3*
Y2549097D3*
Y2349097D3*
X4663367Y2178163D3*
X4863367D3*
X5063363D3*
X5263363D3*
X5463363D3*
X5663363D3*
X5828277Y2177460D3*
X6028277D3*
X6228277D3*
X1960873Y3556123D3*
X1272197Y1697783D3*
X1470400Y1319070D3*
X1598079Y1581672D3*
X1563020Y1412187D3*
X1630587Y1410780D3*
X1812770Y1395517D3*
X1770573Y1508600D3*
X1219757Y1441906D3*
X1217300Y1388860D3*
X1999998Y3000002D3*
X2199998Y3200001D3*
X1799998Y2800002D3*
X1648451Y1603175D3*
X4415633Y3665083D2*
D18*
X6221930D1*
X2239799Y3601917D2*
X2401643D1*
X4440151D2*
X4774352D1*
X4829617D2*
X4994834D1*
X5117091D2*
X5266357D1*
X5353614D2*
X5502789D1*
X5625138D2*
X5756813D1*
X5879070D2*
X6010836D1*
X6133093D2*
X6221930D1*
X2381531Y3538750D2*
X2401552D1*
X4440242D2*
X4698883D1*
X4905086D2*
X4939599D1*
X5172325D2*
X5201461D1*
X5418419D2*
X5447631D1*
X5680281D2*
X5701580D1*
X5934304D2*
X5955563D1*
X6188328D2*
X6221976D1*
X4431674Y3475583D2*
X4691044D1*
X4912924D2*
X4932340D1*
X6195619D2*
X6221837D1*
X2208992Y3412417D2*
X2466630D1*
X3984786D2*
X4039169D1*
X4375164D2*
X4690953D1*
X4912924D2*
X4932340D1*
X6195619D2*
X6221837D1*
X2151388Y3349250D2*
X2631058D1*
X3676075D2*
X3756071D1*
X3948419D2*
X3981252D1*
X4260320D2*
X4690953D1*
X4912924D2*
X4932340D1*
X6195619D2*
X6221837D1*
X1078146Y3286083D2*
X1129977D1*
X1942390D2*
X1977724D1*
X2095333D2*
X2666696D1*
X2796153D2*
X2911513D1*
X4188041D2*
X4714013D1*
X4889955D2*
X4951813D1*
X5160112D2*
X5215498D1*
X5668159D2*
X5713792D1*
X5922182D2*
X5967815D1*
X6176114D2*
X6221930D1*
X1078146Y3222917D2*
X1129977D1*
X1823627D2*
X2510472D1*
X4326948D2*
X5384847D1*
X5637351D2*
X6221930D1*
X1078146Y3159750D2*
X1129977D1*
X1823627D2*
X2503544D1*
X4333875D2*
X5448011D1*
X5655398D2*
X6221930D1*
X1078146Y3096583D2*
X1129977D1*
X1823627D2*
X2503544D1*
X4333875D2*
X5472529D1*
X5655398D2*
X6221930D1*
X1078146Y3033417D2*
X1129977D1*
X1823627D2*
X2542828D1*
X4472872D2*
X5472529D1*
X5655398D2*
X6221930D1*
X1078146Y2970250D2*
X1640758D1*
X1823627D2*
X4238688D1*
X4529929D2*
X5472529D1*
X5655398D2*
X6221930D1*
X1078146Y2907083D2*
X1607308D1*
X1823627D2*
X4238688D1*
X4529656D2*
X5472529D1*
X5655398D2*
X6221930D1*
X1078146Y2843917D2*
X1175094D1*
X1271010D2*
X1544143D1*
X1797468D2*
X2481214D1*
X3055008D2*
X4238688D1*
X4530112D2*
X5472529D1*
X5655398D2*
X6221930D1*
X1734304Y2780750D2*
X2481214D1*
X3055008D2*
X4238688D1*
X4529383D2*
X5472529D1*
X5655398D2*
X6221930D1*
X1697937Y2717583D2*
X2481214D1*
X3055008D2*
X4238688D1*
X4530294D2*
X5472529D1*
X5655398D2*
X6221930D1*
X1697937Y2654417D2*
X2404925D1*
X3055008D2*
X4238688D1*
X4529109D2*
X5472529D1*
X5655398D2*
X6221930D1*
X1697937Y2591250D2*
X2404925D1*
X3055008D2*
X4238688D1*
X4530476D2*
X5472529D1*
X5655398D2*
X6221930D1*
X1697937Y2528083D2*
X2404925D1*
X2877364D2*
X4238688D1*
X4528744D2*
X5472529D1*
X5655398D2*
X6221930D1*
X1695932Y2464917D2*
X2404925D1*
X2877364D2*
X4238688D1*
X4530567D2*
X5472529D1*
X5655398D2*
X6221930D1*
X1712429Y2401750D2*
X2404925D1*
X2877364D2*
X4238688D1*
X4528380D2*
X5472529D1*
X5655398D2*
X6221930D1*
X1078146Y2338583D2*
X1099774D1*
X1775593D2*
X2404925D1*
X2877364D2*
X4238688D1*
X4530659D2*
X5472529D1*
X5655398D2*
X6221930D1*
X1078146Y2275417D2*
X1140367D1*
X1531596D2*
X1585341D1*
X1826271D2*
X2404925D1*
X2877364D2*
X4238688D1*
X4528015D2*
X5472529D1*
X5655398D2*
X6221930D1*
X1078146Y2212250D2*
X1128063D1*
X1577807D2*
X1647867D1*
X1830737D2*
X2404925D1*
X2877364D2*
X4238688D1*
X4530659D2*
X5472529D1*
X5655398D2*
X6221930D1*
X1078146Y2149083D2*
X1225680D1*
X1830737D2*
X2404925D1*
X2877364D2*
X4238688D1*
X4527560D2*
X4622867D1*
X5655398D2*
X6221930D1*
X1078146Y2085917D2*
X1225680D1*
X1830737D2*
X2404925D1*
X2877364D2*
X4238688D1*
X4530750D2*
X4557789D1*
X5655398D2*
X6221930D1*
X1078146Y2022750D2*
X1230602D1*
X1536609D2*
X1574951D1*
X1830737D2*
X2404925D1*
X2877364D2*
X4238688D1*
X5655398D2*
X5731292D1*
X5904591D2*
X5975563D1*
X6168276D2*
X6221930D1*
X1078146Y1959583D2*
X1201344D1*
X1830737D2*
X2768961D1*
X4912013D2*
X4945979D1*
X5165945D2*
X5199912D1*
X5419968D2*
X5448829D1*
X5679096D2*
X5702697D1*
X6194799D2*
X6221832D1*
X1078146Y1896417D2*
X1182112D1*
X1830737D2*
X2753558D1*
X4333875D2*
X4372854D1*
X4621713D2*
X4690953D1*
X4912924D2*
X4944977D1*
X5166948D2*
X5199000D1*
X5420880D2*
X5447867D1*
X5680008D2*
X5701856D1*
X6195619D2*
X6221837D1*
X1078146Y1833250D2*
X1185485D1*
X1889708D2*
X2753558D1*
X4333875D2*
X4362099D1*
X4558549D2*
X4690953D1*
X4912924D2*
X4944977D1*
X5166948D2*
X5199000D1*
X5420880D2*
X5447867D1*
X5680008D2*
X5701856D1*
X6195619D2*
X6221837D1*
X1078146Y1770083D2*
X1182477D1*
X1943758D2*
X2769326D1*
X4319018D2*
X4362099D1*
X4544968D2*
X4696331D1*
X4907638D2*
X4950354D1*
X5161570D2*
X5204287D1*
X5415593D2*
X5453115D1*
X5928836D2*
X5953323D1*
X6190606D2*
X6221980D1*
X1078146Y1706917D2*
X1183662D1*
X1997625D2*
X2745537D1*
X3254252D2*
X3282659D1*
X3422325D2*
X3451279D1*
X3623028D2*
X3662190D1*
X3997729D2*
X4362099D1*
X4544968D2*
X4674912D1*
X4863797D2*
X5002125D1*
X5194291D2*
X5257698D1*
X5362273D2*
X5454664D1*
X5941140D2*
X5993610D1*
X6150320D2*
X6221930D1*
X1078146Y1643750D2*
X1181292D1*
X2051401D2*
X2682373D1*
X3415763D2*
X3451005D1*
X3590763D2*
X3662190D1*
X3801856D2*
X3868544D1*
X4060893D2*
X4362099D1*
X4544968D2*
X4611748D1*
X4804096D2*
X5065198D1*
X5257547D2*
X5451292D1*
X5945151D2*
X6221930D1*
X1078146Y1580583D2*
X1127880D1*
X2099526D2*
X2619209D1*
X3124187D2*
X3164990D1*
X3357338D2*
X3451005D1*
X3590763D2*
X3662190D1*
X3801856D2*
X3931709D1*
X4124057D2*
X4362099D1*
X4740932D2*
X5128362D1*
X5320711D2*
X5451839D1*
X5944239D2*
X6221930D1*
X2161140Y1517417D2*
X2556044D1*
X3061023D2*
X3101826D1*
X3364174D2*
X3451005D1*
X3590763D2*
X3662190D1*
X3801856D2*
X3877568D1*
X3964187D2*
X3994873D1*
X4183302D2*
X4362099D1*
X4678953D2*
X5191526D1*
X5383875D2*
X5451565D1*
X6154968D2*
X6221930D1*
X1455580Y1454250D2*
X1477511D1*
X2170619D2*
X2396448D1*
X4698549D2*
X4773623D1*
X4952573D2*
X5009599D1*
X5224643D2*
X5254690D1*
X1455580Y1391083D2*
X1488636D1*
X1455580Y1327917D2*
X1488636D1*
X1819070Y1264750D2*
X1899248D1*
X2263315D2*
X2396448D1*
X4726440D2*
X4745853D1*
X2328119Y1201583D2*
X2396448D1*
X4512338D2*
X4568544D1*
X4649695D2*
X4822568D1*
X4903627D2*
X5043779D1*
X5190463D2*
X5330615D1*
X5411674D2*
X5474169D1*
X2339239Y1138417D2*
X2520406D1*
X4449174D2*
X5788440D1*
X2334317Y1075250D2*
X5845406D1*
X1187610Y1629647D2*
X1187778Y1695305D1*
X1190283Y1707895D1*
X1193570Y1715827D1*
X1190335Y1727021D1*
X1188826Y1739770D1*
X1188995Y1810095D1*
X1191499Y1822686D1*
X1192990Y1826724D1*
X1192650Y1831082D1*
X1189165Y1843437D1*
X1188493Y1861313D1*
X1188661Y1922305D1*
X1191166Y1934895D1*
X1196540Y1946554D1*
X1204488Y1956635D1*
X1214570Y1964583D1*
X1226228Y1969957D1*
X1238819Y1972462D1*
X1308348D1*
X1317604Y1971204D1*
X1330769Y1976061D1*
X1344703Y1977710D1*
X1364117D1*
X1363829Y1987927D1*
X1350616Y2002334D1*
X1347613Y2006830D1*
X1340297Y2008370D1*
X1331917D1*
Y2013383D1*
X1236997Y2013450D1*
Y2063453D1*
X1231997Y2063449D1*
Y2152316D1*
X1218751Y2150137D1*
X1206196D1*
X1193795Y2152101D1*
X1181855Y2155980D1*
X1170668Y2161680D1*
X1160511Y2169060D1*
X1151633Y2177938D1*
X1144254Y2188095D1*
X1138554Y2199281D1*
X1134674Y2211222D1*
X1132710Y2223622D1*
Y2236178D1*
X1134674Y2248578D1*
X1138554Y2260519D1*
X1144254Y2271705D1*
X1151633Y2281862D1*
X1160511Y2290740D1*
X1170668Y2298120D1*
X1181855Y2303820D1*
X1193795Y2307699D1*
X1206196Y2309663D1*
X1218751D1*
X1231151Y2307699D1*
X1237727Y2305799D1*
X1240510Y2319426D1*
X1148295Y2319638D1*
X1137665Y2321321D1*
X1127428Y2324647D1*
X1117838Y2329534D1*
X1109131Y2335860D1*
X1081652Y2363040D1*
X1071759Y2363053D1*
X1071750Y1520091D1*
X1127032Y1575056D1*
X1137834Y1582905D1*
X1149731Y1588966D1*
X1162429Y1593092D1*
X1175617Y1595181D1*
X1195657Y1596446D1*
X1190283Y1608105D1*
X1187778Y1620695D1*
X1187610Y1629647D1*
X1187611Y1662003D2*
Y1633037D1*
X5457673Y1626770D2*
X5457841Y1692428D1*
X5460346Y1705019D1*
X5465720Y1716677D1*
X5473668Y1726759D1*
X5476830Y1729680D1*
X5477791Y1733645D1*
X5466995Y1748362D1*
X5461548Y1761313D1*
X5454901Y1790833D1*
X5454267Y1822848D1*
X5454454Y1954198D1*
X5458732Y1975800D1*
X5463510Y1993434D1*
X5423957Y1994266D1*
X5404543D1*
X5407483Y1986308D1*
X5413895Y1958055D1*
X5414567Y1940179D1*
X5414395Y1795227D1*
X5410085Y1773723D1*
X5405696Y1757499D1*
X5399541Y1746214D1*
X5381026Y1723129D1*
X5371218Y1714847D1*
X5348005Y1703121D1*
X5336784Y1698465D1*
X5324124Y1696245D1*
X5294553Y1696324D1*
X5281962Y1698827D1*
X5258313Y1709668D1*
X5247679Y1715537D1*
X5238049Y1724051D1*
X5219674Y1747226D1*
X5213782Y1758631D1*
X5207515Y1783862D1*
X5205470Y1795852D1*
X5205518Y1953799D1*
X5209829Y1975304D1*
X5214225Y1991543D1*
X5213957Y1994266D1*
X5150428D1*
X5153483Y1986308D1*
X5159986Y1957455D1*
X5160566Y1926179D1*
X5160395Y1795227D1*
X5156229Y1774356D1*
X5151696Y1757499D1*
X5147883Y1749806D1*
X5150363Y1744541D1*
X5418813Y1476535D1*
X5436235Y1467657D1*
X5452054Y1456164D1*
X5465881Y1442338D1*
X5477374Y1426519D1*
X5480530Y1420883D1*
X5480461Y1465089D1*
X5471034Y1473803D1*
X5463902Y1484477D1*
X5459459Y1496521D1*
X5457950Y1509270D1*
X5458118Y1579595D1*
X5460623Y1592185D1*
X5462114Y1596224D1*
X5461830Y1601205D1*
X5458345Y1613560D1*
X5457673Y1626770D1*
X5457950Y1546293D2*
Y1517327D1*
X5938097Y1571330D2*
Y1538208D1*
X5956846Y1543441D1*
X5977430Y1547536D1*
X5998272Y1550003D1*
X6019243Y1550827D1*
X6040215Y1550003D1*
X6061057Y1547536D1*
X6081641Y1543441D1*
X6101840Y1537745D1*
X6121531Y1530480D1*
X6140590Y1521694D1*
X6158902Y1511439D1*
X6176352Y1499779D1*
X6192834Y1486786D1*
X6208246Y1472539D1*
X6228228Y1449852D1*
X6228250Y3728164D1*
X3877539Y3728250D1*
X3897589Y3708138D1*
X3908190Y3709254D1*
X3942133Y3708581D1*
X3954504Y3705090D1*
X3982476Y3692493D1*
X3992965Y3685091D1*
X3998878Y3678865D1*
X4013104Y3659962D1*
X4033063Y3686865D1*
X4040337Y3694519D1*
X4048718Y3700942D1*
X4062573Y3708006D1*
X4085770Y3718089D1*
X4095971Y3720815D1*
X4106493Y3721912D1*
X4138870Y3721726D1*
X4149299Y3720074D1*
X4159360Y3716803D1*
X4188519Y3703640D1*
X4197379Y3697895D1*
X4205230Y3690835D1*
X4222474Y3668602D1*
X4228534Y3660172D1*
X4244347Y3680576D1*
X4253905Y3689146D1*
X4261294Y3693519D1*
X4289994Y3706133D1*
X4302517Y3708958D1*
X4333590Y3709254D1*
X4346339Y3707745D1*
X4360341Y3702515D1*
X4386163Y3690303D1*
X4396038Y3682101D1*
X4415378Y3656930D1*
X4421820Y3645825D1*
X4431617Y3614455D1*
X4433835Y3601794D1*
X4433752Y3508119D1*
X4432407Y3499639D1*
X4422605Y3467256D1*
X4416578Y3455902D1*
X4397433Y3430590D1*
X4387875Y3422020D1*
X4380486Y3417648D1*
X4351786Y3405034D1*
X4339263Y3402209D1*
X4308173Y3401914D1*
X4299802Y3395045D1*
X4202363Y3297883D1*
X4194301Y3292025D1*
X4185421Y3287501D1*
X4175943Y3284421D1*
X4171032Y3283446D1*
X4169460Y3282292D1*
X4177029Y3274901D1*
X4179149Y3275165D1*
X4190425Y3281301D1*
X4202822Y3284635D1*
X4224709Y3285208D1*
X4259236Y3284635D1*
X4271633Y3281301D1*
X4282909Y3275165D1*
X4292441Y3266566D1*
X4302535Y3251796D1*
X4321597Y3221100D1*
X4326040Y3209056D1*
X4327549Y3196307D1*
X4327381Y3081533D1*
X4324876Y3068942D1*
X4319502Y3057284D1*
X4314454Y3050339D1*
X4335642Y3048714D1*
X4428890Y3048438D1*
X4439298Y3046660D1*
X4449300Y3043276D1*
X4465508Y3034051D1*
X4496649Y3014270D1*
X4504678Y3007412D1*
X4511535Y2999382D1*
X4517051Y2990378D1*
X4521091Y2980623D1*
X4523555Y2970355D1*
X4524382Y2951701D1*
X4524231Y2914730D1*
X4522706Y2904281D1*
X4519565Y2894200D1*
X4514886Y2884734D1*
X4511992Y2880289D1*
X4512006Y2873755D1*
X4517414Y2864686D1*
X4521336Y2854882D1*
X4523677Y2844586D1*
X4524381Y2818603D1*
X4523674Y2784505D1*
X4521334Y2774209D1*
X4517412Y2764405D1*
X4511992Y2755320D1*
X4512006Y2748785D1*
X4517414Y2739716D1*
X4521336Y2729912D1*
X4523677Y2719616D1*
X4524381Y2693633D1*
X4523674Y2659535D1*
X4521334Y2649239D1*
X4517412Y2639435D1*
X4511992Y2630350D1*
X4512006Y2623822D1*
X4517414Y2614752D1*
X4521336Y2604949D1*
X4523677Y2594652D1*
X4524381Y2568669D1*
X4523674Y2534572D1*
X4521334Y2524276D1*
X4517412Y2514472D1*
X4511992Y2505386D1*
X4512006Y2498851D1*
X4517414Y2489782D1*
X4521336Y2479979D1*
X4523677Y2469682D1*
X4524381Y2443699D1*
X4523674Y2409602D1*
X4521334Y2399306D1*
X4517412Y2389502D1*
X4511992Y2380416D1*
X4511535Y2374542D1*
X4517051Y2365538D1*
X4521091Y2355783D1*
X4523555Y2345515D1*
X4524382Y2326861D1*
X4524231Y2289890D1*
X4522706Y2279441D1*
X4519565Y2269360D1*
X4514886Y2259894D1*
X4511992Y2255449D1*
X4512006Y2248915D1*
X4517414Y2239846D1*
X4521336Y2230042D1*
X4523677Y2219746D1*
X4524381Y2193763D1*
X4523674Y2159665D1*
X4521334Y2149369D1*
X4517412Y2139565D1*
X4511992Y2130480D1*
X4512006Y2123948D1*
X4517414Y2114879D1*
X4521336Y2105076D1*
X4523677Y2094779D1*
X4524381Y2068796D1*
X4524379Y2046095D1*
X4622688Y2144060D1*
X4633490Y2151908D1*
X4645387Y2157970D1*
X4658086Y2162096D1*
X4671274Y2164185D1*
X4817950Y2164447D1*
X5478848D1*
X5478867Y3135281D1*
X5360646Y3253489D1*
X5342678Y3245123D1*
X5329090Y3241619D1*
X5307740Y3241078D1*
X5289501Y3241810D1*
X5275979Y3245624D1*
X5248739Y3258845D1*
X5237529Y3267284D1*
X5223792Y3283645D1*
X5212995Y3298362D1*
X5207548Y3311313D1*
X5200901Y3340833D1*
X5200267Y3372848D1*
X5200454Y3504198D1*
X5204732Y3525800D1*
X5209503Y3543418D1*
X5216230Y3555752D1*
X5235176Y3579366D1*
X5245897Y3588419D1*
X5264916Y3598177D1*
X5281668Y3605426D1*
X5295507Y3607853D1*
X5325758Y3607767D1*
X5339520Y3605031D1*
X5359016Y3596242D1*
X5375128Y3587665D1*
X5385653Y3578359D1*
X5404447Y3554646D1*
X5410887Y3542180D1*
X5416168Y3521478D1*
X5419463Y3504195D1*
X5419646Y3435072D1*
X5446626Y3408179D1*
X5446877Y3504794D1*
X5450333Y3523151D1*
X5454677Y3541268D1*
X5458606Y3551069D1*
X5464032Y3560151D1*
X5483624Y3584556D1*
X5491418Y3591680D1*
X5500249Y3597506D1*
X5528486Y3610989D1*
X5538600Y3614025D1*
X5549084Y3615442D1*
X5578864Y3615444D1*
X5589327Y3614026D1*
X5599440Y3610988D1*
X5628999Y3596749D1*
X5637678Y3590734D1*
X5645323Y3583421D1*
X5664743Y3558904D1*
X5669954Y3549721D1*
X5673669Y3539815D1*
X5680532Y3509299D1*
X5681246Y3476179D1*
X5681036Y3344232D1*
X5677581Y3325876D1*
X5673237Y3307759D1*
X5669308Y3297958D1*
X5663881Y3288876D1*
X5644289Y3264470D1*
X5636495Y3257346D1*
X5627665Y3251520D1*
X5611276Y3243512D1*
X5628660Y3225775D1*
X5636508Y3214973D1*
X5642570Y3203076D1*
X5646696Y3190377D1*
X5648784Y3177189D1*
X5649047Y3030513D1*
Y2016739D1*
X5660918Y2000664D1*
X5666365Y1987713D1*
X5673012Y1958194D1*
X5673646Y1926179D1*
X5673644Y1813978D1*
X5700422Y1787157D1*
X5708401Y1795511D1*
X5708454Y1954198D1*
X5712732Y1975800D1*
X5717503Y1993418D1*
X5724230Y2005752D1*
X5743176Y2029366D1*
X5753897Y2038419D1*
X5772916Y2048177D1*
X5789668Y2055427D1*
X5803507Y2057854D1*
X5833758Y2057767D1*
X5847520Y2055031D1*
X5867016Y2046242D1*
X5883128Y2037665D1*
X5893654Y2028359D1*
X5912447Y2004647D1*
X5918887Y1992180D1*
X5924168Y1971478D1*
X5927512Y1953515D1*
X5927459Y1794829D1*
X5922192Y1768888D1*
X5918410Y1755609D1*
X5911683Y1743275D1*
X5906217Y1736268D1*
X5916286Y1730497D1*
X5925713Y1721783D1*
X5932845Y1711109D1*
X5937288Y1699065D1*
X5938797Y1686317D1*
X5938629Y1615992D1*
X5936124Y1603401D1*
X5933940Y1596895D1*
X5937424Y1584540D1*
X5938097Y1571330D1*
X5938796Y1657333D2*
Y1628300D1*
X1559317Y1972297D2*
X1603960D1*
Y2000071D1*
X1542837Y2061209D1*
X1542894Y2050763D1*
X1530225D1*
X1530297Y2008369D1*
X1517221Y2007801D1*
X1511597Y1998624D1*
X1501210Y1987043D1*
Y1977419D1*
X1523348Y1976642D1*
X1536852Y1972833D1*
X1541901Y1970788D1*
X1554650Y1972297D1*
X1559317D1*
X1188494Y1889003D2*
Y1860037D1*
X1188827Y1776793D2*
Y1747827D1*
X1689627Y2471036D2*
X1689441Y2418615D1*
X1799498Y2308311D1*
X1808169Y2298158D1*
X1815146Y2286773D1*
X1820255Y2274438D1*
X1823372Y2261454D1*
X1824419Y2248117D1*
X1824420Y1842636D1*
X1837726Y1846595D1*
X1850549Y1847211D1*
X1863161Y1844816D1*
X1874866Y1839544D1*
X1885016Y1831685D1*
X1933965Y1775378D1*
X1940335Y1764232D1*
X1943058Y1756089D1*
X1946739Y1751826D1*
X1957475Y1744788D1*
X1969711Y1731738D1*
X2009599Y1685597D1*
X2015969Y1674451D1*
X2018691Y1666309D1*
X2029122Y1659756D1*
X2038624Y1651125D1*
X2084635Y1597940D1*
X2091006Y1586795D1*
X2092529Y1582769D1*
X2096723Y1577873D1*
X2107459Y1570834D1*
X2119694Y1557784D1*
X2159582Y1511644D1*
X2165952Y1500498D1*
X2169545Y1488174D1*
X2170161Y1475351D1*
X2167766Y1462739D1*
X2164548Y1454779D1*
X2167542Y1452140D1*
X2402801Y1443176D1*
X2402781Y1514333D1*
X2559717Y1514746D1*
X2790899Y1745928D1*
X2765814Y1786198D1*
X2761371Y1798242D1*
X2759862Y1810991D1*
X2760031Y1925766D1*
X2762535Y1938356D1*
X2767910Y1950015D1*
X2775857Y1960096D1*
X2785939Y1968044D1*
X2797597Y1973418D1*
X2810188Y1975923D1*
X2898292Y1976091D1*
X2911057Y1974578D1*
X2920994Y1978250D1*
X2934756Y1980987D1*
X3027942D1*
X3041704Y1978250D1*
X3051657Y1974582D1*
X3064406Y1976091D1*
X3152511Y1975923D1*
X3165117Y1973413D1*
X3172500Y1973418D1*
X3185091Y1975923D1*
X3277480D1*
X3290087Y1973412D1*
X3297467Y1973418D1*
X3310058Y1975923D1*
X3398179Y1976091D1*
X3413562Y1983646D1*
X3423604Y1986908D1*
X3434033Y1988560D1*
X3528412D1*
X3538841Y1986908D1*
X3548883Y1983646D1*
X3564279Y1976091D1*
X3652384Y1975923D1*
X3664990Y1973413D1*
X3672370Y1973418D1*
X3684961Y1975923D1*
X3777351D1*
X3789957Y1973412D1*
X3797340Y1973418D1*
X3809931Y1975923D1*
X3902320D1*
X3914927Y1973412D1*
X3922307Y1973418D1*
X3934898Y1975923D1*
X4023019Y1976090D1*
X4038402Y1983649D1*
X4048444Y1986912D1*
X4058873Y1988563D1*
X4153252D1*
X4163681Y1986912D1*
X4173723Y1983649D1*
X4183131Y1978855D1*
X4187541Y1975907D1*
X4198449Y1974568D1*
X4265405D1*
X4257870Y1983275D1*
X4252353Y1992278D1*
X4248312Y2002034D1*
X4245847Y2012301D1*
X4245019Y2022828D1*
X4245226Y2111927D1*
X4246884Y2122376D1*
X4246878Y2132086D1*
X4245226Y2142515D1*
Y2236894D1*
X4246884Y2247343D1*
X4246878Y2257056D1*
X4245227Y2267485D1*
Y2361864D1*
X4246884Y2372313D1*
X4246878Y2382022D1*
X4245226Y2392451D1*
Y2486830D1*
X4246884Y2497279D1*
X4246878Y2506992D1*
X4245226Y2517421D1*
Y2611800D1*
X4246884Y2622249D1*
X4246878Y2631956D1*
X4245227Y2642385D1*
X4245226Y2736764D1*
X4246884Y2747213D1*
X4246878Y2756926D1*
X4245226Y2767355D1*
Y2861734D1*
X4246884Y2872183D1*
X4246878Y2881896D1*
X4245226Y2892325D1*
Y2986704D1*
X4246878Y2997133D1*
X4250141Y3007175D1*
X4254935Y3016583D1*
X4261141Y3025126D1*
X4264743Y3029020D1*
X4263606Y3031207D1*
X4189102Y3031208D1*
X4173723Y3023649D1*
X4163681Y3020386D1*
X4153252Y3018735D1*
X4058873D1*
X4048444Y3020386D1*
X4038402Y3023649D1*
X4023002Y3031204D1*
X3939166Y3031205D1*
X3923787Y3023649D1*
X3913744Y3020386D1*
X3903315Y3018735D1*
X3808936D1*
X3798507Y3020386D1*
X3788465Y3023649D1*
X3773066Y3031207D1*
X3684961Y3031376D1*
X3672355Y3033886D1*
X3664975Y3033880D1*
X3652384Y3031376D1*
X3559994D1*
X3547388Y3033886D1*
X3540005Y3033880D1*
X3527414Y3031376D1*
X3435025D1*
X3422418Y3033886D1*
X3415038Y3033880D1*
X3402447Y3031376D1*
X3310058D1*
X3297451Y3033886D1*
X3290071Y3033880D1*
X3277480Y3031376D1*
X3185091D1*
X3172485Y3033886D1*
X3165098Y3033880D1*
X3152507Y3031376D1*
X3060118D1*
X3047511Y3033886D1*
X3040135Y3033880D1*
X3027544Y3031376D1*
X2935155D1*
X2922548Y3033886D1*
X2915168Y3033880D1*
X2902577Y3031376D1*
X2814456Y3031208D1*
X2799073Y3023650D1*
X2789031Y3020387D1*
X2778602Y3018735D1*
X2684223D1*
X2673794Y3020387D1*
X2663752Y3023650D1*
X2648356Y3031207D1*
X2560251Y3031376D1*
X2547660Y3033880D1*
X2536002Y3039255D1*
X2525921Y3047202D1*
X2517973Y3057284D1*
X2512598Y3068942D1*
X2510094Y3081533D1*
X2509930Y3196971D1*
X2511593Y3209700D1*
X2516182Y3221689D1*
X2542338Y3263231D1*
X2551166Y3272551D1*
X2561926Y3279553D1*
X2574023Y3283850D1*
X2582519Y3285088D1*
X2630389Y3285087D1*
X2643009Y3282736D1*
X2654732Y3277503D1*
X2659924Y3274299D1*
X2667391Y3281766D1*
X2675933Y3287972D1*
X2685342Y3292766D1*
X2695384Y3296029D1*
X2705813Y3297680D1*
X2756197Y3297740D1*
X2766645Y3296215D1*
X2776727Y3293074D1*
X2786192Y3288395D1*
X2794810Y3282292D1*
X2802379Y3274901D1*
X2804502Y3275165D1*
X2815778Y3281301D1*
X2828175Y3284635D1*
X2850063Y3285208D1*
X2884590Y3284635D1*
X2896987Y3281301D1*
X2908263Y3275165D1*
X2917805Y3266553D1*
X2917840Y3297386D1*
X2893453Y3321813D1*
X2686140Y3322036D1*
X2676297Y3323595D1*
X2666819Y3326674D1*
X2657939Y3331199D1*
X2649877Y3337056D1*
X2572549Y3414108D1*
X2547690Y3403764D1*
X2534967Y3401931D1*
X2503905Y3402081D1*
X2491314Y3404586D1*
X2463151Y3416780D1*
X2452114Y3423336D1*
X2442902Y3432302D1*
X2423966Y3457766D1*
X2418410Y3469357D1*
X2409093Y3500864D1*
X2407945Y3509372D1*
X2408028Y3603048D1*
X2409373Y3611528D1*
X2411788Y3619873D1*
X2209350Y3619877D1*
X2220138Y3613503D1*
X2272112Y3567299D1*
X2278505Y3567483D1*
X2290445Y3571363D1*
X2302846Y3573327D1*
X2315401D1*
X2327801Y3571363D1*
X2339742Y3567483D1*
X2350928Y3561783D1*
X2361086Y3554403D1*
X2369963Y3545526D1*
X2377343Y3535368D1*
X2383043Y3524182D1*
X2386923Y3512241D1*
X2388887Y3499841D1*
Y3487286D1*
X2386923Y3474885D1*
X2383043Y3462945D1*
X2377343Y3451758D1*
X2369963Y3441601D1*
X2361086Y3432723D1*
X2350928Y3425344D1*
X2339742Y3419644D1*
X2327801Y3415764D1*
X2315401Y3413800D1*
X2302846D1*
X2290445Y3415764D1*
X2278505Y3419644D1*
X2267318Y3425344D1*
X2261651Y3429183D1*
X2214484Y3430251D1*
X2210505Y3429609D1*
X2205824Y3417655D1*
X2198470Y3407112D1*
X2151636Y3354674D1*
X2141399Y3346928D1*
X2133596Y3342552D1*
X2127992Y3331003D1*
X2122807Y3324159D1*
X2075973Y3271721D1*
X2065736Y3263975D1*
X2053973Y3258832D1*
X2041335Y3256577D1*
X2028520Y3257335D1*
X2016236Y3261064D1*
X2005162Y3267557D1*
X1956278Y3310788D1*
X1953352Y3309273D1*
X1946376Y3297889D1*
X1937704Y3287736D1*
X1927551Y3279064D1*
X1916167Y3272088D1*
X1903831Y3266978D1*
X1890848Y3263861D1*
X1877537Y3262813D1*
X1864226Y3263861D1*
X1851242Y3266978D1*
X1837157Y3272983D1*
Y3257626D1*
X1817196D1*
X1816991Y2898587D1*
X1814902Y2885399D1*
X1810776Y2872701D1*
X1804715Y2860804D1*
X1796866Y2850002D1*
X1691596Y2744360D1*
X1691600Y2471046D1*
X1689686D1*
X1691600D1*
X1689626Y2460375D1*
X1818670Y1330380D2*
X1818502Y1285279D1*
X1815998Y1272688D1*
X1810623Y1261030D1*
X1802675Y1250948D1*
X1792594Y1243000D1*
X1788837Y1240898D1*
X1788413Y1238163D1*
X1801112Y1223294D1*
X1811328Y1206622D1*
X1818811Y1188557D1*
X1823376Y1169543D1*
X1824910Y1150050D1*
X1824526Y1100273D1*
X1821467Y1080960D1*
X1818863Y1071727D1*
X1835794Y1071750D1*
X1831224Y1090557D1*
X1829692Y1110088D1*
X1830074Y1159827D1*
X1833133Y1179140D1*
X1839175Y1197736D1*
X1848053Y1215159D1*
X1859546Y1230978D1*
X1873372Y1244804D1*
X1889191Y1256297D1*
X1906440Y1265095D1*
X1871477Y1300063D1*
X1857199Y1303339D1*
X1845600Y1308144D1*
X1834895Y1314704D1*
X1825348Y1322858D1*
X1820734Y1327914D1*
X1818670Y1321507D1*
Y1292507D1*
X1643410Y1404963D2*
Y1420676D1*
X1489891Y1420663D1*
Y1448280D1*
X1449254Y1488920D1*
X1449270Y1420663D1*
X1444190Y1420630D1*
Y1410038D1*
X1449271Y1410043D1*
Y1274691D1*
X1465677Y1273144D1*
X1483831Y1268874D1*
X1494985Y1264732D1*
X1494971Y1404963D1*
X1643447D1*
X1527594Y3679440D2*
X1562138D1*
X1562107Y3728210D1*
X1448320Y3728250D1*
X1463712Y3714029D1*
X1477958Y3698617D1*
X1490951Y3682135D1*
X1504254Y3661752D1*
X1504260Y3679440D1*
X1527594D1*
X1833909D2*
X1843480D1*
Y3661849D1*
X1909855Y3728282D1*
X1833867Y3728250D1*
X1833887Y3679431D1*
X1136267Y3296443D2*
X1117600Y3308784D1*
X1101118Y3321777D1*
X1085707Y3336024D1*
X1071738Y3351134D1*
X1071750Y2791393D1*
X1104430Y2823877D1*
X1112493Y2829735D1*
X1121372Y2834259D1*
X1130851Y2837339D1*
X1140694Y2838898D1*
X1174388Y2839093D1*
X1186696Y2846873D1*
X1198296Y2851677D1*
X1210504Y2854608D1*
X1223020Y2855593D1*
X1235536Y2854608D1*
X1247744Y2851677D1*
X1259344Y2846873D1*
X1270049Y2840313D1*
X1279596Y2832159D1*
X1287749Y2822612D1*
X1294309Y2811907D1*
X1299114Y2800308D1*
X1302111Y2787539D1*
X1305520Y2785255D1*
X1512235Y2785346D1*
X1512220Y2790426D1*
X1518145D1*
X1523297Y2807573D1*
X1529359Y2819469D1*
X1537207Y2830272D1*
X1647118Y2940553D1*
X1647073Y3003427D1*
X1504620Y3003447D1*
Y3016116D1*
X1136300Y3016127D1*
Y3296363D1*
X5856533Y1071710D2*
X5845652Y1080288D1*
X5830241Y1094534D1*
X5815994Y1109946D1*
X5803001Y1126428D1*
X5791341Y1143878D1*
X5781086Y1162190D1*
X5772300Y1181249D1*
X5766539Y1196863D1*
X5480517Y1196799D1*
Y1261786D1*
X5471938Y1248166D1*
X5459239Y1233297D1*
X5444371Y1220598D1*
X5427698Y1210382D1*
X5409633Y1202899D1*
X5390620Y1198334D1*
X5371127Y1196800D1*
X5351633Y1198334D1*
X5332620Y1202899D1*
X5314555Y1210382D1*
X5297883Y1220598D1*
X5283014Y1233297D1*
X5270315Y1248166D1*
X5260098Y1264838D1*
X5252616Y1282903D1*
X5250623Y1289360D1*
X5243966Y1268871D1*
X5234186Y1249676D1*
X5221523Y1232247D1*
X5206289Y1217014D1*
X5188860Y1204351D1*
X5169665Y1194571D1*
X5149176Y1187913D1*
X5127898Y1184543D1*
X5106355D1*
X5085077Y1187913D1*
X5064588Y1194571D1*
X5045393Y1204351D1*
X5027964Y1217014D1*
X5012731Y1232247D1*
X5000068Y1249676D1*
X4990287Y1268871D1*
X4983589Y1289567D1*
X4978251Y1273724D1*
X4969374Y1256301D1*
X4957881Y1240482D1*
X4944054Y1226656D1*
X4928235Y1215163D1*
X4910813Y1206285D1*
X4892216Y1200243D1*
X4872903Y1197184D1*
X4853350D1*
X4834037Y1200243D1*
X4815440Y1206285D1*
X4798018Y1215163D1*
X4782199Y1226656D1*
X4768372Y1240482D1*
X4756879Y1256301D1*
X4748002Y1273724D1*
X4741960Y1292320D1*
X4738901Y1311633D1*
X4738517Y1361410D1*
X4740051Y1380903D1*
X4744616Y1399917D1*
X4752098Y1417982D1*
X4762315Y1434654D1*
X4775014Y1449523D1*
X4789883Y1462222D1*
X4806555Y1472438D1*
X4824620Y1479921D1*
X4843633Y1484486D1*
X4863127Y1486020D1*
X4882620Y1484486D1*
X4901633Y1479921D1*
X4919698Y1472438D1*
X4936371Y1462222D1*
X4951239Y1449523D1*
X4963938Y1434654D1*
X4974155Y1417982D1*
X4981638Y1399917D1*
X4983630Y1393460D1*
X4990287Y1413949D1*
X5000068Y1433144D1*
X5012731Y1450573D1*
X5027964Y1465806D1*
X5045393Y1478469D1*
X5064588Y1488249D1*
X5085077Y1494907D1*
X5106355Y1498277D1*
X5127898D1*
X5149176Y1494907D1*
X5169665Y1488249D1*
X5188860Y1478469D1*
X5206289Y1465806D1*
X5221523Y1450573D1*
X5234186Y1433144D1*
X5243966Y1413949D1*
X5250664Y1393253D1*
X5256002Y1409096D1*
X5264879Y1426519D1*
X5274834Y1440387D1*
X5007651Y1707899D1*
X4993679Y1715537D1*
X4984049Y1724051D1*
X4965674Y1747226D1*
X4959782Y1758631D1*
X4953707Y1783018D1*
X4951470Y1795852D1*
X4951518Y1953799D1*
X4955685Y1974670D1*
X4960225Y1991543D1*
X4957290Y1994266D1*
X4896496D1*
X4899483Y1986308D1*
X4905986Y1957455D1*
X4906566Y1926179D1*
X4906395Y1795227D1*
X4902229Y1774356D1*
X4897695Y1757499D1*
X4891541Y1746215D1*
X4873026Y1723130D1*
X4863204Y1714838D1*
X4853338Y1700423D1*
X4846865Y1692845D1*
X4672657Y1518637D1*
X4672637Y1468634D1*
X4690054Y1456164D1*
X4703881Y1442338D1*
X4715374Y1426519D1*
X4724251Y1409096D1*
X4730294Y1390500D1*
X4733353Y1371187D1*
X4733646Y1321409D1*
X4732203Y1301917D1*
X4727638Y1282903D1*
X4720155Y1264838D1*
X4709938Y1248166D1*
X4697239Y1233297D1*
X4682371Y1220598D1*
X4665698Y1210382D1*
X4647633Y1202899D1*
X4628620Y1198334D1*
X4609127Y1196800D1*
X4589633Y1198334D1*
X4570620Y1202899D1*
X4552555Y1210382D1*
X4535883Y1220598D1*
X4527497Y1227304D1*
X4518243Y1214192D1*
X4411644Y1107222D1*
X4401491Y1098551D1*
X4390107Y1091574D1*
X4377771Y1086464D1*
X4364788Y1083347D1*
X4351451Y1082301D1*
X2611421Y1082562D1*
X2598233Y1084651D1*
X2585534Y1088777D1*
X2573637Y1094839D1*
X2562835Y1102687D1*
X2472044Y1193108D1*
X2452334Y1196833D1*
X2402781D1*
Y1272939D1*
X2145462Y1282677D1*
X2162289Y1265878D1*
X2179210Y1271217D1*
X2198523Y1274276D1*
X2218077D1*
X2237390Y1271217D1*
X2255986Y1265175D1*
X2273409Y1256297D1*
X2289228Y1244804D1*
X2303054Y1230978D1*
X2314547Y1215159D1*
X2323425Y1197736D1*
X2329467Y1179140D1*
X2332526Y1159827D1*
X2332819Y1110049D1*
X2331376Y1090557D1*
X2326863Y1071727D1*
X5856237Y1071750D1*
X1536730Y1235751D2*
X1547120Y1223283D1*
X1556920Y1207416D1*
X1564242Y1190265D1*
X1568923Y1172213D1*
X1570858Y1153664D1*
X1570561Y1100725D1*
X1567777Y1082285D1*
X1564863Y1071767D1*
X1581680Y1071750D1*
X1577224Y1090557D1*
X1575692Y1110088D1*
X1576074Y1159827D1*
X1579133Y1179140D1*
X1585175Y1197736D1*
X1594053Y1215159D1*
X1605546Y1230978D1*
X1609930Y1235721D1*
X1536730Y1235743D1*
X4538648Y1464069D2*
X4545585Y1468535D1*
X4545812Y1549906D1*
X4547371Y1559750D1*
X4550451Y1569228D1*
X4554975Y1578107D1*
X4560833Y1586170D1*
X4715997Y1741611D1*
X4709413Y1750870D1*
X4704430Y1762718D1*
X4697927Y1791571D1*
X4697347Y1822848D1*
X4697518Y1953799D1*
X4701685Y1974670D1*
X4703621Y1983161D1*
X4672121Y1953192D1*
X4538646Y1819717D1*
X4538630Y1464204D1*
X1298503Y2315631D2*
X1297506Y2319414D1*
X1240510Y2319426D1*
X1242192Y2304170D1*
X1281932D1*
X1525176Y2254169D2*
X1530817D1*
Y2243870D1*
X1543237Y2237961D1*
X1551300Y2232104D1*
X1654279Y2129401D1*
X1654240Y2212858D1*
X1547749Y2319389D1*
X1537226Y2319119D1*
X1533346Y2307178D1*
X1527333Y2295522D1*
X1525217Y2280837D1*
Y2254131D1*
X1281917Y2304192D2*
Y2309250D1*
X1295315D1*
X1297039Y2312901D1*
X4697350Y1940243D2*
X4697348Y1824277D1*
X4951350Y1940243D2*
X4951348Y1824277D1*
X5205350Y1940243D2*
X5205348Y1824277D1*
X5673646Y1940278D2*
X5673643Y1824242D1*
X5708268Y1853278D1*
X5708270Y1940278D1*
X5454270Y1940242D2*
X5454268Y1824278D1*
X5927646Y1940278D2*
X5927644Y1824242D1*
X5954666Y1799515D1*
X5954877Y1954794D1*
X5958332Y1973151D1*
X5962676Y1991268D1*
X5966605Y2001069D1*
X5972032Y2010151D1*
X5991624Y2034556D1*
X5999418Y2041680D1*
X6008249Y2047507D1*
X6036486Y2060989D1*
X6046599Y2064025D1*
X6057084Y2065442D1*
X6088353Y2065344D1*
X6098782Y2063693D1*
X6108844Y2060423D1*
X6136999Y2046748D1*
X6145678Y2040734D1*
X6153322Y2033421D1*
X6172743Y2008904D1*
X6177954Y1999721D1*
X6181669Y1989815D1*
X6188531Y1959299D1*
X6189246Y1926179D1*
X6189036Y1794232D1*
X6185581Y1775876D1*
X6181237Y1757759D1*
X6177308Y1747958D1*
X6171881Y1738876D1*
X6152289Y1714470D1*
X6144495Y1707346D1*
X6135664Y1701520D1*
X6107427Y1688038D1*
X6097314Y1685002D1*
X6086830Y1683585D1*
X6055561Y1683683D1*
X6045131Y1685333D1*
X6035070Y1688604D1*
X6006914Y1702278D1*
X5998235Y1708293D1*
X5990591Y1715606D1*
X5971171Y1740122D1*
X5965960Y1749306D1*
X5962245Y1759212D1*
X5955495Y1788988D1*
X5954666Y1799515D1*
X6189246Y1940281D2*
X6189245Y1882239D1*
X5954670Y1940239D2*
X5954669Y1882281D1*
X5961297Y3312892D2*
X5954874Y3344235D1*
X5954670Y3499515D1*
X5955502Y3510062D1*
X5962676Y3541268D1*
X5966605Y3551069D1*
X5972032Y3560151D1*
X5991624Y3584556D1*
X5999418Y3591680D1*
X6008249Y3597507D1*
X6036486Y3610989D1*
X6046599Y3614025D1*
X6057084Y3615442D1*
X6088353Y3615344D1*
X6098782Y3613693D1*
X6108844Y3610423D1*
X6136999Y3596748D1*
X6145678Y3590734D1*
X6153323Y3583421D1*
X6172743Y3558904D1*
X6177954Y3549721D1*
X6181669Y3539815D1*
X6188532Y3509299D1*
X6189246Y3476179D1*
X6189036Y3344232D1*
X6185581Y3325876D1*
X6181237Y3307759D1*
X6177308Y3297958D1*
X6171881Y3288876D1*
X6152289Y3264470D1*
X6144495Y3257346D1*
X6135665Y3251520D1*
X6107427Y3238038D1*
X6097314Y3235002D1*
X6086830Y3233585D1*
X6055561Y3233683D1*
X6045131Y3235333D1*
X6035070Y3238603D1*
X6006914Y3252278D1*
X5998235Y3258292D1*
X5990591Y3265606D1*
X5971171Y3290122D1*
X5965960Y3299306D1*
X5962245Y3309212D1*
X5927237Y3307759D1*
X5923308Y3297958D1*
X5917881Y3288876D1*
X5898289Y3264470D1*
X5890495Y3257346D1*
X5881665Y3251520D1*
X5853427Y3238038D1*
X5843314Y3235002D1*
X5832830Y3233585D1*
X5801561Y3233683D1*
X5791131Y3235333D1*
X5781070Y3238603D1*
X5752914Y3252278D1*
X5744235Y3258292D1*
X5736591Y3265606D1*
X5717171Y3290122D1*
X5711960Y3299306D1*
X5708245Y3309212D1*
X5701382Y3339727D1*
X5700667Y3372848D1*
X5700878Y3504794D1*
X5704333Y3523151D1*
X5709907Y3544851D1*
X5714381Y3554415D1*
X5723072Y3566641D1*
X5737624Y3584557D1*
X5745418Y3591680D1*
X5754249Y3597507D1*
X5782486Y3610989D1*
X5792599Y3614025D1*
X5803084Y3615442D1*
X5834353Y3615344D1*
X5844782Y3613693D1*
X5854844Y3610423D1*
X5882999Y3596749D1*
X5891678Y3590734D1*
X5899323Y3583421D1*
X5918743Y3558904D1*
X5923954Y3549721D1*
X5927669Y3539815D1*
X5934532Y3509299D1*
X5935246Y3476179D1*
X5935036Y3344232D1*
X5931581Y3325876D1*
X5927237Y3307759D1*
X5700671Y3490239D2*
X5700668Y3374281D1*
X5446670Y3490239D2*
X5446669Y3432281D1*
X5200270Y3490242D2*
X5171558Y3514492D1*
X5173094Y3504025D1*
X5173036Y3344232D1*
X5168591Y3321537D1*
X5163465Y3302781D1*
X5158779Y3293319D1*
X5145292Y3275427D1*
X5133631Y3261782D1*
X5125449Y3255107D1*
X5112314Y3247863D1*
X5091427Y3238037D1*
X5081314Y3235002D1*
X5070830Y3233585D1*
X5039561Y3233683D1*
X5029131Y3235333D1*
X5019070Y3238603D1*
X4990914Y3252278D1*
X4982235Y3258292D1*
X4974591Y3265606D1*
X4955171Y3290122D1*
X4949960Y3299306D1*
X4946245Y3309212D1*
X4939382Y3339727D1*
X4938667Y3372848D1*
X4938877Y3504794D1*
X4942333Y3523151D1*
X4946677Y3541268D1*
X4950606Y3551069D1*
X4956032Y3560151D1*
X4975624Y3584556D1*
X4983418Y3591680D1*
X4992249Y3597506D1*
X5020486Y3610989D1*
X5030599Y3614025D1*
X5041084Y3615442D1*
X5072353Y3615343D1*
X5082782Y3613693D1*
X5092844Y3610423D1*
X5120999Y3596748D1*
X5129678Y3590734D1*
X5137322Y3583420D1*
X5156742Y3558904D1*
X5161953Y3549721D1*
X5165668Y3539815D1*
X5171558Y3514492D1*
X5200270Y3461242D2*
X5173246Y3490239D1*
X5173243Y3374239D1*
X5200268Y3403278D1*
X5200269Y3432278D1*
X4938670Y3490239D2*
X4906566Y3476179D1*
X4906395Y3345227D1*
X4902084Y3323723D1*
X4897695Y3307499D1*
X4891541Y3296215D1*
X4873026Y3273130D1*
X4863218Y3264847D1*
X4840004Y3253122D1*
X4828784Y3248466D1*
X4816124Y3246245D1*
X4786554Y3246324D1*
X4773962Y3248827D1*
X4750313Y3259668D1*
X4740699Y3264847D1*
X4730890Y3273129D1*
X4711674Y3297226D1*
X4705782Y3308631D1*
X4699515Y3333862D1*
X4697470Y3345852D1*
X4697518Y3503799D1*
X4701829Y3525304D1*
X4706218Y3541527D1*
X4712372Y3552812D1*
X4730887Y3575897D1*
X4740695Y3584180D1*
X4763909Y3595905D1*
X4775129Y3600561D1*
X4787790Y3602782D1*
X4817360Y3602702D1*
X4829951Y3600200D1*
X4853600Y3589358D1*
X4864235Y3583490D1*
X4873864Y3574975D1*
X4892239Y3551801D1*
X4898131Y3540395D1*
X4904399Y3515165D1*
X4906443Y3503175D1*
X4906566Y3476179D1*
X4938670Y3461239D2*
X4906565Y3432243D1*
X4906564Y3374243D1*
X4938668Y3403281D1*
X4938669Y3432281D1*
X4697350Y3490243D2*
X4697347Y3374277D1*
X4251250Y1720564D2*
X4202818Y1721140D1*
X4190422Y1724474D1*
X4179132Y1730621D1*
X4173960Y1729112D1*
X4165930Y1722255D1*
X4156927Y1716739D1*
X4147171Y1712699D1*
X4136904Y1710235D1*
X4118249Y1709408D1*
X4081278Y1709559D1*
X4070830Y1711084D1*
X4060748Y1714225D1*
X4051283Y1718904D1*
X4042665Y1725006D1*
X4035096Y1732397D1*
X4032975Y1732132D1*
X4021699Y1725995D1*
X4009302Y1722660D1*
X3987408Y1722088D1*
X3976197Y1722089D1*
X4169183Y1528837D1*
X4175041Y1520774D1*
X4179566Y1511894D1*
X4182645Y1502416D1*
X4184205Y1492553D1*
X4192965Y1485091D1*
X4198878Y1478865D1*
X4217814Y1453401D1*
X4219973Y1449677D1*
X4222891Y1451633D1*
X4241642Y1477250D1*
X4250498Y1486543D1*
X4261294Y1493519D1*
X4289994Y1506133D1*
X4302517Y1508958D1*
X4333590Y1509254D1*
X4346339Y1507745D1*
X4360034Y1502652D1*
X4368446Y1498913D1*
X4368712Y1861623D1*
X4370801Y1874811D1*
X4374927Y1887509D1*
X4380989Y1899406D1*
X4388837Y1910208D1*
X4434942Y1956685D1*
X4422799Y1955537D1*
X4314462Y1955424D1*
X4321594Y1944750D1*
X4326037Y1932706D1*
X4327546Y1919958D1*
X4327322Y1804524D1*
X4324665Y1791965D1*
X4319150Y1780372D1*
X4295135Y1742543D1*
X4286307Y1733222D1*
X4275548Y1726220D1*
X4263451Y1721922D1*
X4254955Y1720684D1*
X4327545Y1890974D2*
X4327546Y1832941D1*
X3668043Y1741241D2*
X3658605Y1732514D1*
X3647404Y1726242D1*
X3635031Y1722757D1*
X3618100Y1708380D1*
X3584393Y1674673D1*
X3584400Y1491442D1*
X3592965Y1485091D1*
X3598878Y1478865D1*
X3617814Y1453401D1*
X3619973Y1449677D1*
X3622891Y1451633D1*
X3641642Y1477250D1*
X3650498Y1486543D1*
X3661294Y1493519D1*
X3668526Y1496776D1*
X3668510Y1741804D1*
X3456459Y1709555D2*
X3445990Y1711081D1*
X3435908Y1714221D1*
X3426443Y1718901D1*
X3417810Y1725017D1*
X3416000Y1705330D1*
X3415805Y1666940D1*
X3414246Y1657097D1*
X3411166Y1647619D1*
X3406641Y1638739D1*
X3400784Y1630677D1*
X3289703Y1519319D1*
X3301200Y1521570D1*
X3333590Y1521934D1*
X3344117Y1521105D1*
X3354384Y1518640D1*
X3383779Y1505974D1*
X3393062Y1500942D1*
X3401443Y1494519D1*
X3408729Y1486848D1*
X3428534Y1460172D1*
X3444347Y1480576D1*
X3453919Y1489155D1*
X3457380Y1495583D1*
X3457578Y1705989D1*
X3286580Y1734757D2*
X3275808Y1727743D1*
X3267836Y1724555D1*
X3261168Y1720214D1*
X3221015Y1680062D1*
X3216276Y1664328D1*
X3210576Y1653142D1*
X3203197Y1642984D1*
X3194319Y1634107D1*
X3184162Y1626727D1*
X3172975Y1621027D1*
X3161035Y1617147D1*
X3154312Y1615855D1*
X3121269Y1584041D1*
X3006226Y1468998D1*
X3017814Y1453401D1*
X3019973Y1449677D1*
X3022891Y1451633D1*
X3041642Y1477249D1*
X3050498Y1486543D1*
X3061294Y1493519D1*
X3089994Y1506133D1*
X3098290Y1508348D1*
X3122706Y1531957D1*
X3288923Y1698173D1*
X3288980Y1736910D1*
X4524381Y2077668D2*
X4524379Y2048627D1*
X4245020Y2077627D2*
Y2048668D1*
X4524381Y2202635D2*
X4524379Y2173594D1*
X4245020Y2202594D2*
Y2173635D1*
Y2327564D2*
Y2298605D1*
X4524381Y2452571D2*
X4524379Y2423530D1*
X4245020Y2452530D2*
Y2423571D1*
X4524381Y2702505D2*
X4524379Y2673464D1*
X4245020Y2702464D2*
Y2673505D1*
X4524381Y2827475D2*
X4524379Y2798434D1*
X4245020Y2827434D2*
Y2798475D1*
X4327549Y3172614D2*
Y3114581D1*
X3891338Y3296218D2*
X3901440Y3293074D1*
X3910906Y3288395D1*
X3919538Y3282278D1*
X3924505Y3281720D1*
X3929713Y3290217D1*
X3936185Y3297795D1*
X4033137Y3394470D1*
X4041199Y3400328D1*
X4050079Y3404852D1*
X4054776Y3406584D1*
X4044401Y3413272D1*
X4036550Y3420332D1*
X4019306Y3442565D1*
X4013246Y3450995D1*
X3997433Y3430590D1*
X3987875Y3422020D1*
X3980486Y3417648D1*
X3978460Y3411950D1*
X3977678Y3402015D1*
X3975352Y3392324D1*
X3971538Y3383117D1*
X3966331Y3374620D1*
X3959844Y3367028D1*
X3889415Y3296598D1*
X3669733Y3266553D2*
X3679276Y3275165D1*
X3690552Y3281301D1*
X3698351Y3285168D1*
X3844072Y3430889D1*
X3828676Y3451205D1*
X3806949Y3422210D1*
X3799370Y3414858D1*
X3790734Y3408782D1*
X3765491Y3397065D1*
X3750963Y3391515D1*
X3740580Y3389597D1*
X3708190Y3389233D1*
X3697663Y3390062D1*
X3687396Y3392526D1*
X3669699Y3399994D1*
X3669700Y3266572D1*
X3292686Y3266578D2*
X3292743Y3281345D1*
X3163948Y3410225D1*
X3158466Y3407818D1*
X3279580Y3286433D1*
X3285438Y3278371D1*
X3289969Y3269473D1*
X2509926Y3172581D2*
Y3114614D1*
X3800174Y1477202D2*
X3813104Y1459962D1*
X3834831Y1488957D1*
X3842410Y1496309D1*
X3851046Y1502385D1*
X3876289Y1514102D1*
X3890817Y1519652D1*
X3901200Y1521570D1*
X3933590Y1521934D1*
X3944117Y1521105D1*
X3954384Y1518640D1*
X3983779Y1505974D1*
X3993062Y1500942D1*
X4001443Y1494519D1*
X4008729Y1486848D1*
X4028534Y1460172D1*
X4041535Y1477107D1*
X3809143Y1709797D1*
X3803285Y1717859D1*
X3798761Y1726739D1*
X3795677Y1736236D1*
X3795530Y1482700D1*
X3798878Y1478865D1*
X2407860Y3596627D2*
Y3538660D1*
X2510852Y2906604D2*
X3048699D1*
Y2548458D1*
X2871056D1*
X2870995Y2015046D1*
X2411247D1*
Y2677958D1*
X2487536D1*
X2487519Y2906604D1*
X2510852D1*
X1187596Y1658000D2*
D21*
X1272700D1*
X1921033Y1757577D2*
Y1658037D1*
X2020142D1*
X1845400Y1847358D2*
Y1747817D1*
X1944509D1*
X1996070Y1669921D2*
Y1570380D1*
X2095179D1*
X2071017Y1583624D2*
Y1484083D1*
X2170125D1*
X5457659Y1655123D2*
X5542763D1*
X5457936Y1542290D2*
X5543040D1*
X5853007Y1542977D2*
X5938111D1*
X5853707Y1653297D2*
X5938811D1*
X1585130Y1972311D2*
Y1884667D1*
X1273583Y1972644D2*
Y1885000D1*
X1188479D2*
X1273583D1*
X1188812Y1772790D2*
X1273917D1*
X1643396Y1421643D2*
X1731040D1*
X1446300Y1274569D2*
Y1130050D1*
X1570819D1*
X1748797Y3698747D2*
X1833901D1*
X1334580Y1415353D2*
X1444099D1*
X1232089Y2133810D2*
X1301107D1*
X1306107Y2083810D2*
Y2013541D1*
X1237088Y2083810D2*
X1306107D1*
X5309957Y1874513D2*
Y1696142D1*
X5205333Y1874513D2*
X5414581D1*
X4801957Y3602884D2*
Y3246143D1*
X4697332Y3424513D2*
X4906581D1*
X1474910Y3170737D2*
Y3016218D1*
X1347910Y3170737D2*
Y3016218D1*
X1220910Y3170737D2*
Y3016218D1*
X1136391Y3170737D2*
X1220910D1*
X1474910Y2785255D2*
Y2630737D1*
X4231026Y1974582D2*
Y1720550D1*
Y1847567D2*
X4327560D1*
X3981092Y1976105D2*
Y1722073D1*
X2856382Y1976105D2*
Y1849091D1*
X2759848D2*
X2856382D1*
X4231029Y3285222D2*
Y3031194D1*
Y3158207D2*
X4327563D1*
X2856382Y3285222D2*
Y3031193D1*
X2606446Y3285222D2*
Y3031193D1*
X2509912Y3158207D2*
X2606446D1*
X4320890Y1509268D2*
Y1355583D1*
D56*
X1272700Y1658000D3*
X1374300D3*
D59*
X1582567Y1657503D3*
X1480967D3*
D62*
X1921033Y1658038D3*
X1844354Y1591382D3*
X1845399Y1747818D3*
X1768721Y1681162D3*
X1996069Y1570381D3*
X1919391Y1503726D3*
D65*
X1994337Y1417429D3*
X2071016Y1484084D3*
D56*
X5542763Y1655123D3*
X5644363D3*
X5543040Y1542290D3*
X5644640D3*
D59*
X5853007Y1542977D3*
X5751407D3*
X5853707Y1653297D3*
X5752107D3*
D68*
X2037012Y3506476D3*
X2112948Y3438977D3*
D59*
X1585130Y1884667D3*
X1483530D3*
D56*
X1273583Y1885000D3*
X1375183D3*
D59*
X1584027Y1772343D3*
X1482427D3*
D56*
X1273917Y1772790D3*
X1375517D3*
D59*
X1599457Y2456337D3*
X1497857D3*
D71*
X1731040Y1320043D3*
Y1421643D3*
D25*
X1587467Y3357317D3*
X1737467D3*
X1598870Y3584830D3*
X1748870D3*
D26*
X1192300Y1130050D3*
D27*
X1446300D3*
X1700300D3*
X1954300D3*
X2208300D3*
D26*
X5625127Y1341410D3*
D27*
X5371127D3*
X5117127D3*
X4863127D3*
X4609127D3*
D56*
X1748797Y3698747D3*
X1647197D3*
X1748290Y3470013D3*
X1646690D3*
D68*
X2037285Y3356024D3*
X1961348Y3423523D3*
D74*
X2112075Y3592536D3*
X2188012Y3525037D3*
D56*
X1197977Y2455763D3*
X1096377D3*
D71*
X1098403Y2691283D3*
Y2589683D3*
D29*
X1334580Y1510353D3*
Y1415353D3*
Y1320353D3*
X1604580D3*
Y1510353D3*
D31*
X1461103Y2133803D3*
X1461707Y2183810D3*
X1301107Y2133810D3*
X1301110Y2183817D3*
X1456107Y2083810D3*
X1406107D3*
X1356107D3*
X1306107D3*
X1456107Y2233810D3*
X1406107D3*
X1356107D3*
X1306107D3*
D77*
X4801957Y1874513D3*
X5055957D3*
X5309957D3*
X5563957D3*
X5817957D3*
X6071957D3*
Y3424513D3*
X5817957D3*
X5563957D3*
X5309957D3*
X5055957D3*
X4801957D3*
D33*
X1601910Y3170737D3*
X1474910D3*
X1347910D3*
X1220910D3*
Y2630737D3*
X1347910D3*
X1474910D3*
X1601910D3*
D80*
X4231026Y1847567D3*
X4106062Y1849091D3*
X3981092D3*
X3856126D3*
X3731156D3*
X3606189D3*
X3481223Y1849087D3*
X3356253Y1849091D3*
X3231286D3*
X3106316D3*
X2981349D3*
X2856382D3*
D83*
X4384699Y2064738D3*
Y2189704D3*
Y2314674D3*
Y2439641D3*
Y2564611D3*
Y2689574D3*
Y2814544D3*
Y2939514D3*
D86*
X4231029Y3158207D3*
X4106062D3*
X3981092Y3158204D3*
X3856126Y3158207D3*
X3731156D3*
X3606189D3*
X3481219D3*
X3356253D3*
X3231286D3*
X3106313D3*
X2981349D3*
X2856382D3*
X2731412D3*
X2606446D3*
D34*
X2520890Y1355583D3*
D89*
X2720890D3*
X2920890D3*
X3120890D3*
X3320890D3*
X3520890D3*
X3720890D3*
X3920890D3*
X4120890D3*
X4320890D3*
Y3555583D3*
X4120890D3*
X3920890D3*
X3720890D3*
X3520890D3*
X3320890D3*
X3120890D3*
X2920890D3*
X2720890D3*
X2520890D3*
M02*
