G04 DipTrace 3.3.1.0*
G04 TopSilk.gbr*
%MOMM*%
G04 #@! TF.FileFunction,Legend,Top*
G04 #@! TF.Part,Single*
%ADD10C,0.25*%
%ADD22C,0.03333*%
%ADD23C,0.0508*%
%ADD24C,0.05*%
%ADD28O,0.39103X0.39118*%
%ADD30O,0.36763X0.36778*%
%ADD32O,0.68642X0.67751*%
%ADD54C,0.07843*%
%FSLAX35Y35*%
G04*
G71*
G90*
G75*
G01*
G04 TopSilk*
%LPD*%
X1223170Y1710070D2*
D23*
X1423830D1*
Y1605930D1*
X1223170D1*
Y1710070D1*
X1632097Y1605433D2*
X1431437D1*
Y1709573D1*
X1632097D1*
Y1605433D1*
X1992574Y1651235D2*
X1841134Y1519590D1*
X1772812Y1598185D1*
X1924252Y1729830D1*
X1992574Y1651235D1*
X1916941Y1741015D2*
X1765501Y1609370D1*
X1697179Y1687965D1*
X1848619Y1819610D1*
X1916941Y1741015D1*
X2067611Y1563578D2*
X1916171Y1431933D1*
X1847849Y1510529D1*
X1999289Y1642173D1*
X2067611Y1563578D1*
X1922796Y1424232D2*
X2074236Y1555877D1*
X2142558Y1477281D1*
X1991118Y1345637D1*
X1922796Y1424232D1*
X5493233Y1707193D2*
X5693893D1*
Y1603053D1*
X5493233D1*
Y1707193D1*
X5493510Y1594360D2*
X5694170D1*
Y1490220D1*
X5493510D1*
Y1594360D1*
X5902537Y1490907D2*
X5701877D1*
Y1595047D1*
X5902537D1*
Y1490907D1*
X5903237Y1601227D2*
X5702577D1*
Y1705367D1*
X5903237D1*
Y1601227D1*
X2034586Y3578300D2*
X2184561Y3444989D1*
X2115374Y3367153D1*
X1965399Y3500465D1*
X2034586Y3578300D1*
X1634660Y1832597D2*
X1434000D1*
Y1936737D1*
X1634660D1*
Y1832597D1*
X1224053Y1937070D2*
X1424713D1*
Y1832930D1*
X1224053D1*
Y1937070D1*
X1633557Y1720273D2*
X1432897D1*
Y1824413D1*
X1633557D1*
Y1720273D1*
X1224387Y1824860D2*
X1425047D1*
Y1720720D1*
X1224387D1*
Y1824860D1*
X1648987Y2404267D2*
X1448327D1*
Y2508407D1*
X1648987D1*
Y2404267D1*
X1678970Y1270513D2*
Y1471173D1*
X1783110D1*
Y1270513D1*
X1678970D1*
X1522470Y3407317D2*
D24*
X1787467D1*
Y3307317D1*
X1522470D1*
Y3407317D1*
G36*
X1408467Y3357317D2*
X1662472D1*
D1*
X1408467D1*
G37*
G36*
X1522470Y3407317D2*
X1542481D1*
Y3307317D1*
X1522470D1*
Y3407317D1*
G37*
X1533873Y3634830D2*
D24*
X1798870D1*
Y3534830D1*
X1533873D1*
Y3634830D1*
G36*
X1419870Y3584830D2*
X1673876D1*
D1*
X1419870D1*
G37*
G36*
X1533873Y3634830D2*
X1553884D1*
Y3534830D1*
X1533873D1*
Y3634830D1*
G37*
X1050300Y1230050D2*
D10*
X2350300D1*
Y1030050D1*
X1050300D1*
Y1230050D1*
X5767127Y1241410D2*
X4467127D1*
Y1441410D1*
X5767127D1*
Y1241410D1*
X1798327Y3646677D2*
D23*
X1597667D1*
Y3750817D1*
X1798327D1*
Y3646677D1*
X1797820Y3417943D2*
X1597160D1*
Y3522083D1*
X1797820D1*
Y3417943D1*
X2039711Y3284200D2*
X1889736Y3417511D1*
X1958922Y3495347D1*
X2108898Y3362035D1*
X2039711Y3284200D1*
X2109649Y3664360D2*
X2259624Y3531049D1*
X2190438Y3453213D1*
X2040462Y3586525D1*
X2109649Y3664360D1*
X1247507Y2403693D2*
X1046847D1*
Y2507833D1*
X1247507D1*
Y2403693D1*
X1150473Y2740813D2*
Y2540153D1*
X1046333D1*
Y2740813D1*
X1150473D1*
D28*
X1292352Y1578714D3*
X1429678Y1565348D2*
D10*
Y1265353D1*
X1509664Y1565348D2*
Y1265353D1*
X1429678D2*
X1509664D1*
X1429678Y1565348D2*
X1509664D1*
X1481115Y2258802D2*
D24*
X1481095Y2058803D1*
X1281098Y2058829D1*
X1281118Y2258828D1*
X1481115Y2258802D1*
D30*
X1456893Y2296528D3*
X4586987Y3449449D2*
D10*
X4727311D1*
D32*
X4702750Y1765749D3*
X4586987Y1849394D2*
D10*
X4727311D1*
X4879795D2*
X4981398D1*
X5133723D2*
X5235326D1*
X5387810D2*
X5489413D1*
X5641737D2*
X5743340D1*
X4586987D2*
Y3449449D1*
X5895825Y1849394D2*
X5997428D1*
X6187033D2*
Y3449449D1*
X6149752Y1849394D2*
X6187033D1*
X4879795Y3449449D2*
X4981398D1*
X5133723D2*
X5235326D1*
X5387810D2*
X5489413D1*
X5641737D2*
X5743340D1*
X5895825D2*
X5997428D1*
X6149752D2*
X6187033D1*
X1661415Y3030755D2*
X1161405D1*
X1661415Y2770719D2*
X1161405D1*
Y3030755D2*
Y2770719D1*
X1661415Y2950761D2*
Y3030755D1*
Y2850713D2*
Y2770719D1*
Y2950761D2*
G03X1661415Y2850713I23J-50024D01*
G01*
X2475996Y1825826D2*
X4406373D1*
Y3179658D1*
X2475996D1*
Y1825826D1*
X1748730Y2915523D2*
Y1995643D1*
Y2915523D2*
X2401579Y3674851D1*
X1748730Y1995643D2*
X2401579Y1236315D1*
Y3674851D2*
Y1236315D1*
Y3674851D2*
X4440890Y3675583D1*
X2401579Y1236315D2*
X4440890Y1235583D1*
X4440082Y3674851D2*
Y1236315D1*
X4606957Y1212817D2*
D22*
Y1151390D1*
X4607257Y1212090D2*
X4597187Y1202030D1*
X4607213Y1211707D2*
X4616833Y1202087D1*
X4858710Y1212497D2*
Y1151070D1*
X4859010Y1211770D2*
X4848940Y1201710D1*
X4858967Y1211387D2*
X4868587Y1201767D1*
X4607087Y1151013D2*
X4858253D1*
X5386470Y1210803D2*
Y1149377D1*
X5386770Y1210077D2*
X5376700Y1200017D1*
X5386727Y1209693D2*
X5396347Y1200073D1*
X5638223Y1210483D2*
Y1149057D1*
X5638523Y1209757D2*
X5628453Y1199697D1*
X5638480Y1209373D2*
X5648100Y1199753D1*
X5386600Y1149000D2*
X5637767D1*
X1327786Y1772335D2*
D54*
X1325371Y1777165D1*
X1320486Y1782050D1*
X1315657Y1784465D1*
X1305942D1*
X1301057Y1782050D1*
X1296228Y1777165D1*
X1293757Y1772335D1*
X1291342Y1765035D1*
Y1752850D1*
X1293757Y1745606D1*
X1296228Y1740721D1*
X1301057Y1735892D1*
X1305942Y1733421D1*
X1315657D1*
X1320486Y1735892D1*
X1325371Y1740721D1*
X1327786Y1745606D1*
X1343472Y1774694D2*
X1348358Y1777165D1*
X1355658Y1784408D1*
Y1733421D1*
X1525131Y1771839D2*
X1522716Y1776668D1*
X1517831Y1781553D1*
X1513002Y1783968D1*
X1503287D1*
X1498402Y1781553D1*
X1493572Y1776668D1*
X1491102Y1771839D1*
X1488687Y1764539D1*
Y1752353D1*
X1491102Y1745110D1*
X1493572Y1740224D1*
X1498402Y1735395D1*
X1503287Y1732924D1*
X1513002D1*
X1517831Y1735395D1*
X1522716Y1740224D1*
X1525131Y1745110D1*
X1543288Y1771783D2*
Y1774197D1*
X1545702Y1779083D1*
X1548117Y1781497D1*
X1553002Y1783912D1*
X1562717D1*
X1567546Y1781497D1*
X1569961Y1779083D1*
X1572432Y1774197D1*
Y1769368D1*
X1569961Y1764483D1*
X1565132Y1757239D1*
X1540817Y1732924D1*
X1574846D1*
X1757851Y1534859D2*
X1755436Y1539688D1*
X1750551Y1544573D1*
X1745722Y1546988D1*
X1736007D1*
X1731122Y1544573D1*
X1726292Y1539688D1*
X1723822Y1534859D1*
X1721407Y1527559D1*
Y1515373D1*
X1723822Y1508130D1*
X1726292Y1503244D1*
X1731122Y1498415D1*
X1736007Y1495944D1*
X1745722D1*
X1750551Y1498415D1*
X1755436Y1503244D1*
X1757851Y1508130D1*
X1778422Y1546932D2*
X1805096D1*
X1790552Y1527503D1*
X1797852D1*
X1802681Y1525088D1*
X1805096Y1522673D1*
X1807566Y1515373D1*
Y1510544D1*
X1805096Y1503244D1*
X1800266Y1498359D1*
X1792966Y1495944D1*
X1785666D1*
X1778422Y1498359D1*
X1776008Y1500830D1*
X1773537Y1505659D1*
X1680744Y1642926D2*
X1678329Y1647755D1*
X1673444Y1652640D1*
X1668614Y1655055D1*
X1658900D1*
X1654014Y1652640D1*
X1649185Y1647755D1*
X1646714Y1642926D1*
X1644300Y1635626D1*
Y1623440D1*
X1646714Y1616196D1*
X1649185Y1611311D1*
X1654014Y1606482D1*
X1658900Y1604011D1*
X1668614D1*
X1673444Y1606482D1*
X1678329Y1611311D1*
X1680744Y1616196D1*
X1720744Y1604011D2*
Y1654999D1*
X1696430Y1621026D1*
X1732874D1*
X1842831Y1465636D2*
X1840416Y1470465D1*
X1835531Y1475350D1*
X1830702Y1477765D1*
X1820987D1*
X1816102Y1475350D1*
X1811272Y1470465D1*
X1808802Y1465636D1*
X1806387Y1458336D1*
Y1446150D1*
X1808802Y1438906D1*
X1811272Y1434021D1*
X1816102Y1429192D1*
X1820987Y1426721D1*
X1830702D1*
X1835531Y1429192D1*
X1840416Y1434021D1*
X1842831Y1438906D1*
X1887661Y1477709D2*
X1863402D1*
X1860988Y1455865D1*
X1863402Y1458279D1*
X1870702Y1460750D1*
X1877946D1*
X1885246Y1458279D1*
X1890132Y1453450D1*
X1892546Y1446150D1*
Y1441321D1*
X1890132Y1434021D1*
X1885246Y1429136D1*
X1877946Y1426721D1*
X1870702D1*
X1863402Y1429136D1*
X1860988Y1431606D1*
X1858517Y1436436D1*
X2112720Y1406452D2*
X2110305Y1411281D1*
X2105420Y1416167D1*
X2100590Y1418581D1*
X2090876D1*
X2085990Y1416167D1*
X2081161Y1411281D1*
X2078690Y1406452D1*
X2076276Y1399152D1*
Y1386967D1*
X2078690Y1379723D1*
X2081161Y1374838D1*
X2085990Y1370008D1*
X2090876Y1367538D1*
X2100590D1*
X2105420Y1370008D1*
X2110305Y1374838D1*
X2112720Y1379723D1*
X2157550Y1411281D2*
X2155135Y1416111D1*
X2147835Y1418525D1*
X2143006D1*
X2135706Y1416111D1*
X2130820Y1408811D1*
X2128406Y1396681D1*
Y1384552D1*
X2130820Y1374838D1*
X2135706Y1369952D1*
X2143006Y1367538D1*
X2145420D1*
X2152664Y1369952D1*
X2157550Y1374838D1*
X2159964Y1382138D1*
Y1384552D1*
X2157550Y1391852D1*
X2152664Y1396681D1*
X2145420Y1399096D1*
X2143006D1*
X2135706Y1396681D1*
X2130820Y1391852D1*
X2128406Y1384552D1*
X5586928Y1769459D2*
X5584513Y1774288D1*
X5579628Y1779173D1*
X5574798Y1781588D1*
X5565084D1*
X5560198Y1779173D1*
X5555369Y1774288D1*
X5552898Y1769459D1*
X5550484Y1762159D1*
Y1749973D1*
X5552898Y1742730D1*
X5555369Y1737844D1*
X5560198Y1733015D1*
X5565084Y1730544D1*
X5574798D1*
X5579628Y1733015D1*
X5584513Y1737844D1*
X5586928Y1742730D1*
X5612328Y1730544D2*
X5636643Y1781532D1*
X5602614D1*
X5587232Y1656625D2*
X5584818Y1661455D1*
X5579932Y1666340D1*
X5575103Y1668755D1*
X5565388D1*
X5560503Y1666340D1*
X5555674Y1661455D1*
X5553203Y1656625D1*
X5550788Y1649325D1*
Y1637140D1*
X5553203Y1629896D1*
X5555674Y1625011D1*
X5560503Y1620182D1*
X5565388Y1617711D1*
X5575103D1*
X5579932Y1620182D1*
X5584818Y1625011D1*
X5587232Y1629896D1*
X5615048Y1668698D2*
X5607804Y1666284D1*
X5605333Y1661455D1*
Y1656569D1*
X5607804Y1651740D1*
X5612633Y1649269D1*
X5622348Y1646855D1*
X5629648Y1644440D1*
X5634477Y1639555D1*
X5636892Y1634725D1*
Y1627425D1*
X5634477Y1622596D1*
X5632062Y1620125D1*
X5624762Y1617711D1*
X5615048D1*
X5607804Y1620125D1*
X5605333Y1622596D1*
X5602919Y1627425D1*
Y1634725D1*
X5605333Y1639555D1*
X5610219Y1644440D1*
X5617462Y1646855D1*
X5627177Y1649269D1*
X5632062Y1651740D1*
X5634477Y1656569D1*
Y1661455D1*
X5632062Y1666284D1*
X5624762Y1668698D1*
X5615048D1*
X5796778Y1657312D2*
X5794364Y1662141D1*
X5789478Y1667027D1*
X5784649Y1669441D1*
X5774934D1*
X5770049Y1667027D1*
X5765220Y1662141D1*
X5762749Y1657312D1*
X5760334Y1650012D1*
Y1637827D1*
X5762749Y1630583D1*
X5765220Y1625697D1*
X5770049Y1620868D1*
X5774934Y1618397D1*
X5784649D1*
X5789478Y1620868D1*
X5794364Y1625697D1*
X5796778Y1630583D1*
X5844079Y1652427D2*
X5841608Y1645127D1*
X5836779Y1640241D1*
X5829479Y1637827D1*
X5827064D1*
X5819764Y1640241D1*
X5814935Y1645127D1*
X5812464Y1652427D1*
Y1654841D1*
X5814935Y1662141D1*
X5819764Y1666971D1*
X5827064Y1669385D1*
X5829479D1*
X5836779Y1666971D1*
X5841608Y1662141D1*
X5844079Y1652427D1*
Y1640241D1*
X5841608Y1628112D1*
X5836779Y1620812D1*
X5829479Y1618397D1*
X5824650D1*
X5817350Y1620812D1*
X5814935Y1625697D1*
X5782335Y1767632D2*
X5779920Y1772461D1*
X5775035Y1777347D1*
X5770206Y1779761D1*
X5760491D1*
X5755606Y1777347D1*
X5750777Y1772461D1*
X5748306Y1767632D1*
X5745891Y1760332D1*
Y1748147D1*
X5748306Y1740903D1*
X5750777Y1736017D1*
X5755606Y1731188D1*
X5760491Y1728717D1*
X5770206D1*
X5775035Y1731188D1*
X5779920Y1736017D1*
X5782335Y1740903D1*
X5798021Y1769991D2*
X5802907Y1772461D1*
X5810207Y1779705D1*
Y1728717D1*
X5840493Y1779705D2*
X5833193Y1777291D1*
X5828308Y1769991D1*
X5825893Y1757861D1*
Y1750561D1*
X5828308Y1738432D1*
X5833193Y1731132D1*
X5840493Y1728717D1*
X5845322D1*
X5852622Y1731132D1*
X5857451Y1738432D1*
X5859922Y1750561D1*
Y1757861D1*
X5857451Y1769991D1*
X5852622Y1777291D1*
X5845322Y1779705D1*
X5840493D1*
X5857451Y1769991D2*
X5828308Y1738432D1*
X2216194Y3542502D2*
X2213779Y3547331D1*
X2208894Y3552217D1*
X2204064Y3554631D1*
X2194350D1*
X2189464Y3552217D1*
X2184635Y3547331D1*
X2182164Y3542502D1*
X2179750Y3535202D1*
Y3523017D1*
X2182164Y3515773D1*
X2184635Y3510887D1*
X2189464Y3506058D1*
X2194350Y3503587D1*
X2204064D1*
X2208894Y3506058D1*
X2213779Y3510887D1*
X2216194Y3515773D1*
X2231880Y3544860D2*
X2236765Y3547331D1*
X2244065Y3554575D1*
Y3503587D1*
X2259752Y3544860D2*
X2264637Y3547331D1*
X2271937Y3554575D1*
Y3503587D1*
X1513758Y1999002D2*
X1511344Y2003831D1*
X1506458Y2008717D1*
X1501629Y2011131D1*
X1491914D1*
X1487029Y2008717D1*
X1482200Y2003831D1*
X1479729Y1999002D1*
X1477314Y1991702D1*
Y1979517D1*
X1479729Y1972273D1*
X1482200Y1967387D1*
X1487029Y1962558D1*
X1491914Y1960087D1*
X1501629D1*
X1506458Y1962558D1*
X1511344Y1967387D1*
X1513758Y1972273D1*
X1529445Y2001361D2*
X1534330Y2003831D1*
X1541630Y2011075D1*
Y1960087D1*
X1559787Y1998946D2*
Y2001361D1*
X1562202Y2006246D1*
X1564616Y2008661D1*
X1569502Y2011075D1*
X1579216D1*
X1584046Y2008661D1*
X1586460Y2006246D1*
X1588931Y2001361D1*
Y1996531D1*
X1586460Y1991646D1*
X1581631Y1984402D1*
X1557316Y1960087D1*
X1591346D1*
X1303812Y1999335D2*
X1301397Y2004165D1*
X1296512Y2009050D1*
X1291682Y2011465D1*
X1281968D1*
X1277082Y2009050D1*
X1272253Y2004165D1*
X1269782Y1999335D1*
X1267368Y1992035D1*
Y1979850D1*
X1269782Y1972606D1*
X1272253Y1967721D1*
X1277082Y1962892D1*
X1281968Y1960421D1*
X1291682D1*
X1296512Y1962892D1*
X1301397Y1967721D1*
X1303812Y1972606D1*
X1319498Y2001694D2*
X1324383Y2004165D1*
X1331683Y2011408D1*
Y1960421D1*
X1352255Y2011408D2*
X1378928D1*
X1364384Y1991979D1*
X1371684D1*
X1376513Y1989565D1*
X1378928Y1987150D1*
X1381399Y1979850D1*
Y1975021D1*
X1378928Y1967721D1*
X1374099Y1962835D1*
X1366799Y1960421D1*
X1359499D1*
X1352255Y1962835D1*
X1349840Y1965306D1*
X1347370Y1970135D1*
X1511448Y1886679D2*
X1509033Y1891508D1*
X1504148Y1896393D1*
X1499318Y1898808D1*
X1489604D1*
X1484718Y1896393D1*
X1479889Y1891508D1*
X1477418Y1886679D1*
X1475004Y1879379D1*
Y1867193D1*
X1477418Y1859950D1*
X1479889Y1855064D1*
X1484718Y1850235D1*
X1489604Y1847764D1*
X1499318D1*
X1504148Y1850235D1*
X1509033Y1855064D1*
X1511448Y1859950D1*
X1527134Y1889037D2*
X1532019Y1891508D1*
X1539319Y1898752D1*
Y1847764D1*
X1579320D2*
Y1898752D1*
X1555006Y1864779D1*
X1591449D1*
X1304145Y1887125D2*
X1301730Y1891955D1*
X1296845Y1896840D1*
X1292016Y1899255D1*
X1282301D1*
X1277416Y1896840D1*
X1272587Y1891955D1*
X1270116Y1887125D1*
X1267701Y1879825D1*
Y1867640D1*
X1270116Y1860396D1*
X1272587Y1855511D1*
X1277416Y1850682D1*
X1282301Y1848211D1*
X1292016D1*
X1296845Y1850682D1*
X1301730Y1855511D1*
X1304145Y1860396D1*
X1319831Y1889484D2*
X1324717Y1891955D1*
X1332017Y1899198D1*
Y1848211D1*
X1376847Y1899198D2*
X1352588D1*
X1350174Y1877355D1*
X1352588Y1879769D1*
X1359888Y1882240D1*
X1367132D1*
X1374432Y1879769D1*
X1379318Y1874940D1*
X1381732Y1867640D1*
Y1862811D1*
X1379318Y1855511D1*
X1374432Y1850625D1*
X1367132Y1848211D1*
X1359888D1*
X1352588Y1850625D1*
X1350174Y1853096D1*
X1347703Y1857925D1*
X1495184Y2570672D2*
X1492769Y2575501D1*
X1487884Y2580387D1*
X1483054Y2582801D1*
X1473340D1*
X1468454Y2580387D1*
X1463625Y2575501D1*
X1461154Y2570672D1*
X1458740Y2563372D1*
Y2551187D1*
X1461154Y2543943D1*
X1463625Y2539057D1*
X1468454Y2534228D1*
X1473340Y2531757D1*
X1483054D1*
X1487884Y2534228D1*
X1492769Y2539057D1*
X1495184Y2543943D1*
X1510870Y2573031D2*
X1515755Y2575501D1*
X1523055Y2582745D1*
Y2531757D1*
X1567886Y2575501D2*
X1565471Y2580331D1*
X1558171Y2582745D1*
X1553342D1*
X1546042Y2580331D1*
X1541156Y2573031D1*
X1538742Y2560901D1*
Y2548772D1*
X1541156Y2539057D1*
X1546042Y2534172D1*
X1553342Y2531757D1*
X1555756D1*
X1563000Y2534172D1*
X1567886Y2539057D1*
X1570300Y2546357D1*
Y2548772D1*
X1567886Y2556072D1*
X1563000Y2560901D1*
X1555756Y2563316D1*
X1553342D1*
X1546042Y2560901D1*
X1541156Y2556072D1*
X1538742Y2548772D1*
X1616705Y1350272D2*
X1611875Y1347857D1*
X1606990Y1342972D1*
X1604575Y1338143D1*
Y1328428D1*
X1606990Y1323543D1*
X1611875Y1318714D1*
X1616705Y1316243D1*
X1624005Y1313828D1*
X1636190D1*
X1643434Y1316243D1*
X1648319Y1318714D1*
X1653149Y1323543D1*
X1655619Y1328428D1*
Y1338143D1*
X1653149Y1342972D1*
X1648319Y1347857D1*
X1643434Y1350272D1*
X1614346Y1365958D2*
X1611876Y1370844D1*
X1604632Y1378144D1*
X1655619Y1378143D1*
Y1403544D2*
X1604632Y1427859D1*
Y1393830D1*
X1692233Y3386665D2*
Y3335621D1*
X1709248D1*
X1716548Y3338092D1*
X1721433Y3342921D1*
X1723848Y3347806D1*
X1726262Y3355050D1*
Y3367235D1*
X1723848Y3374535D1*
X1721433Y3379365D1*
X1716548Y3384250D1*
X1709248Y3386665D1*
X1692233D1*
X1741948Y3376894D2*
X1746834Y3379365D1*
X1754134Y3386608D1*
Y3335621D1*
X1801334Y3602111D2*
Y3551067D1*
X1818349D1*
X1825649Y3553538D1*
X1830534Y3558367D1*
X1832949Y3563253D1*
X1835364Y3570497D1*
Y3582682D1*
X1832949Y3589982D1*
X1830534Y3594811D1*
X1825649Y3599697D1*
X1818349Y3602111D1*
X1801334D1*
X1853521Y3589926D2*
Y3592341D1*
X1855935Y3597226D1*
X1858350Y3599641D1*
X1863235Y3602055D1*
X1872950D1*
X1877779Y3599641D1*
X1880194Y3597226D1*
X1882664Y3592341D1*
Y3587511D1*
X1880194Y3582626D1*
X1875364Y3575382D1*
X1851050Y3551067D1*
X1885079D1*
X1698521Y1304445D2*
Y1265586D1*
X1696107Y1258286D1*
X1693636Y1255872D1*
X1688807Y1253401D1*
X1683921D1*
X1679092Y1255872D1*
X1676678Y1258286D1*
X1674207Y1265586D1*
Y1270415D1*
X1714208Y1294674D2*
X1719093Y1297145D1*
X1726393Y1304388D1*
Y1253401D1*
X5104426Y1515805D2*
Y1476946D1*
X5102012Y1469646D1*
X5099541Y1467232D1*
X5094712Y1464761D1*
X5089826D1*
X5084997Y1467232D1*
X5082582Y1469646D1*
X5080112Y1476946D1*
Y1481775D1*
X5122583Y1503619D2*
Y1506034D1*
X5124998Y1510919D1*
X5127412Y1513334D1*
X5132298Y1515748D1*
X5142012D1*
X5146842Y1513334D1*
X5149256Y1510919D1*
X5151727Y1506034D1*
Y1501205D1*
X5149256Y1496319D1*
X5144427Y1489075D1*
X5120112Y1464761D1*
X5154142D1*
X1811876Y3745077D2*
X1833720D1*
X1841020Y3747547D1*
X1843491Y3749962D1*
X1845905Y3754791D1*
Y3759677D1*
X1843491Y3764506D1*
X1841020Y3766977D1*
X1833720Y3769391D1*
X1811876D1*
Y3718347D1*
X1828891Y3745077D2*
X1845905Y3718347D1*
X1861592Y3759621D2*
X1866477Y3762091D1*
X1873777Y3769335D1*
Y3718347D1*
X1812514Y3466560D2*
X1834358D1*
X1841658Y3469031D1*
X1844129Y3471445D1*
X1846544Y3476275D1*
Y3481160D1*
X1844129Y3485989D1*
X1841658Y3488460D1*
X1834358Y3490875D1*
X1812514D1*
Y3439831D1*
X1829529Y3466560D2*
X1846544Y3439831D1*
X1864701Y3478689D2*
Y3481104D1*
X1867115Y3485989D1*
X1869530Y3488404D1*
X1874415Y3490818D1*
X1884130D1*
X1888959Y3488404D1*
X1891374Y3485989D1*
X1893844Y3481104D1*
Y3476275D1*
X1891374Y3471389D1*
X1886544Y3464145D1*
X1862230Y3439831D1*
X1896259D1*
X2110548Y3451130D2*
X2132391D1*
X2139691Y3453601D1*
X2142162Y3456015D1*
X2144577Y3460845D1*
Y3465730D1*
X2142162Y3470559D1*
X2139691Y3473030D1*
X2132391Y3475445D1*
X2110548D1*
Y3424401D1*
X2127562Y3451130D2*
X2144577Y3424401D1*
X2165149Y3475388D2*
X2191822D1*
X2177278Y3455959D1*
X2184578D1*
X2189407Y3453545D1*
X2191822Y3451130D1*
X2194292Y3443830D1*
Y3439001D1*
X2191822Y3431701D1*
X2186992Y3426815D1*
X2179692Y3424401D1*
X2172392D1*
X2165149Y3426815D1*
X2162734Y3429286D1*
X2160263Y3434115D1*
X2282700Y3665403D2*
X2304544D1*
X2311844Y3667874D1*
X2314315Y3670289D1*
X2316730Y3675118D1*
Y3680003D1*
X2314315Y3684832D1*
X2311844Y3687303D1*
X2304544Y3689718D1*
X2282700D1*
Y3638674D1*
X2299715Y3665403D2*
X2316730Y3638674D1*
X2356730D2*
Y3689662D1*
X2332416Y3655689D1*
X2368860D1*
X1292048Y2449480D2*
X1313891D1*
X1321191Y2451951D1*
X1323662Y2454365D1*
X1326077Y2459195D1*
Y2464080D1*
X1323662Y2468909D1*
X1321191Y2471380D1*
X1313891Y2473795D1*
X1292048D1*
Y2422751D1*
X1309062Y2449480D2*
X1326077Y2422751D1*
X1370907Y2473738D2*
X1346649D1*
X1344234Y2451895D1*
X1346649Y2454309D1*
X1353949Y2456780D1*
X1361192D1*
X1368492Y2454309D1*
X1373378Y2449480D1*
X1375792Y2442180D1*
Y2437351D1*
X1373378Y2430051D1*
X1368492Y2425165D1*
X1361192Y2422751D1*
X1353949D1*
X1346649Y2425165D1*
X1344234Y2427636D1*
X1341763Y2432465D1*
X1098660Y2786590D2*
Y2808434D1*
X1096189Y2815734D1*
X1093775Y2818205D1*
X1088946Y2820619D1*
X1084060D1*
X1079231Y2818205D1*
X1076760Y2815734D1*
X1074345Y2808434D1*
Y2786590D1*
X1125389D1*
X1098660Y2803605D2*
X1125389Y2820619D1*
X1081646Y2865449D2*
X1076816Y2863035D1*
X1074402Y2855735D1*
Y2850905D1*
X1076816Y2843605D1*
X1084116Y2838720D1*
X1096246Y2836305D1*
X1108375D1*
X1118089Y2838720D1*
X1122975Y2843605D1*
X1125389Y2850905D1*
Y2853320D1*
X1122975Y2860564D1*
X1118089Y2865449D1*
X1110789Y2867864D1*
X1108375D1*
X1101075Y2865449D1*
X1096246Y2860564D1*
X1093831Y2853320D1*
Y2850905D1*
X1096246Y2843605D1*
X1101075Y2838720D1*
X1108375Y2836305D1*
X1547686Y1439741D2*
Y1403297D1*
X1550101Y1395997D1*
X1554986Y1391168D1*
X1562286Y1388697D1*
X1567115D1*
X1574415Y1391168D1*
X1579301Y1395997D1*
X1581715Y1403297D1*
Y1439741D1*
X1597402Y1429971D2*
X1602287Y1432441D1*
X1609587Y1439685D1*
Y1388697D1*
X1339234Y2389311D2*
Y2352867D1*
X1341649Y2345567D1*
X1346534Y2340738D1*
X1353834Y2338267D1*
X1358664D1*
X1365964Y2340738D1*
X1370849Y2345567D1*
X1373264Y2352867D1*
Y2389311D1*
X1391421Y2377126D2*
Y2379541D1*
X1393835Y2384426D1*
X1396250Y2386841D1*
X1401135Y2389255D1*
X1410850D1*
X1415679Y2386841D1*
X1418094Y2384426D1*
X1420564Y2379541D1*
Y2374711D1*
X1418094Y2369826D1*
X1413264Y2362582D1*
X1388950Y2338267D1*
X1422979D1*
X5345138Y3622655D2*
Y3586211D1*
X5347552Y3578911D1*
X5352438Y3574082D1*
X5359738Y3571611D1*
X5364567D1*
X5371867Y3574082D1*
X5376752Y3578911D1*
X5379167Y3586211D1*
Y3622655D1*
X5399739Y3622598D2*
X5426412D1*
X5411868Y3603169D1*
X5419168D1*
X5423997Y3600755D1*
X5426412Y3598340D1*
X5428882Y3591040D1*
Y3586211D1*
X5426412Y3578911D1*
X5421582Y3574025D1*
X5414282Y3571611D1*
X5406982D1*
X5399739Y3574025D1*
X5397324Y3576496D1*
X5394853Y3581325D1*
X1079177Y2929475D2*
Y2893031D1*
X1081592Y2885731D1*
X1086477Y2880902D1*
X1093777Y2878431D1*
X1098606D1*
X1105906Y2880902D1*
X1110792Y2885731D1*
X1113206Y2893031D1*
Y2929475D1*
X1153207Y2878431D2*
Y2929418D1*
X1128892Y2895445D1*
X1165336D1*
X2308401Y2200934D2*
X2359445Y2234962D1*
X2308401Y2234963D2*
X2359445Y2200934D1*
X2308401Y2250649D2*
X2359445D1*
Y2272549D1*
X2356974Y2279849D1*
X2354560Y2282263D1*
X2349731Y2284678D1*
X2342431D1*
X2337545Y2282263D1*
X2335131Y2279849D1*
X2332716Y2272549D1*
X2330245Y2279849D1*
X2327831Y2282263D1*
X2323001Y2284678D1*
X2318116D1*
X2313287Y2282263D1*
X2310816Y2279849D1*
X2308401Y2272549D1*
Y2250649D1*
X2332716D2*
Y2272549D1*
X2308401Y2331923D2*
Y2300364D1*
X2359445D1*
Y2331923D1*
X2332716Y2300364D2*
Y2319793D1*
X2308401Y2379167D2*
Y2347609D1*
X2359445D1*
Y2379167D1*
X2332716Y2347609D2*
Y2367038D1*
X2367868Y2394854D2*
Y2441012D1*
X2359445Y2495557D2*
X2308401D1*
X2359445Y2476128D1*
X2308401Y2456698D1*
X2359445D1*
X2308401Y2511243D2*
X2359445D1*
X2320530Y2563373D2*
X2315701Y2560959D1*
X2310816Y2556073D1*
X2308401Y2551244D1*
Y2541529D1*
X2310816Y2536644D1*
X2315701Y2531815D1*
X2320530Y2529344D1*
X2327830Y2526929D1*
X2340016D1*
X2347260Y2529344D1*
X2352145Y2531815D1*
X2356974Y2536644D1*
X2359445Y2541529D1*
Y2551244D1*
X2356974Y2556073D1*
X2352145Y2560959D1*
X2347260Y2563373D1*
X2332716Y2579060D2*
Y2600903D1*
X2330245Y2608203D1*
X2327830Y2610674D1*
X2323001Y2613089D1*
X2318116D1*
X2313287Y2610674D1*
X2310816Y2608203D1*
X2308401Y2600903D1*
Y2579060D1*
X2359445D1*
X2332716Y2596074D2*
X2359445Y2613089D1*
X2308401Y2643375D2*
X2310816Y2638490D1*
X2315701Y2633660D1*
X2320530Y2631190D1*
X2327830Y2628775D1*
X2340016D1*
X2347260Y2631190D1*
X2352145Y2633660D1*
X2356974Y2638490D1*
X2359445Y2643375D1*
Y2653090D1*
X2356974Y2657919D1*
X2352145Y2662804D1*
X2347260Y2665219D1*
X2340016Y2667633D1*
X2327830D1*
X2320530Y2665219D1*
X2315701Y2662804D1*
X2310816Y2657919D1*
X2308401Y2653090D1*
Y2643375D1*
X1665325Y2191189D2*
X1716369Y2225218D1*
X1665325D2*
X1716369Y2191189D1*
X1665326Y2240904D2*
X1716369D1*
Y2262804D1*
X1713899Y2270104D1*
X1711484Y2272519D1*
X1706655Y2274933D1*
X1699355D1*
X1694469Y2272519D1*
X1692055Y2270104D1*
X1689640Y2262804D1*
X1687169Y2270104D1*
X1684755Y2272519D1*
X1679926Y2274933D1*
X1675040D1*
X1670211Y2272519D1*
X1667740Y2270104D1*
X1665326Y2262804D1*
Y2240904D1*
X1689640D2*
Y2262804D1*
X1665325Y2322178D2*
X1665326Y2290619D1*
X1716369D1*
Y2322178D1*
X1689640Y2290619D2*
Y2310049D1*
X1665325Y2369423D2*
Y2337864D1*
X1716369D1*
Y2369423D1*
X1689640Y2337864D2*
Y2357293D1*
X1724792Y2385109D2*
Y2431267D1*
X1665325Y2463968D2*
X1716369D1*
X1665325Y2446954D2*
Y2480983D1*
Y2496669D2*
X1716369D1*
X1665325Y2530698D2*
X1716369D1*
X1689640Y2496669D2*
Y2530698D1*
X4671117Y1190449D2*
X4668703Y1195334D1*
X4661403Y1197749D1*
X4654103D1*
X4646803Y1195334D1*
X4644388Y1190449D1*
X4646803Y1185619D1*
X4651688Y1183149D1*
X4663817Y1180734D1*
X4668703Y1178319D1*
X4671117Y1173434D1*
Y1171019D1*
X4668703Y1166190D1*
X4661403Y1163719D1*
X4654103D1*
X4646803Y1166190D1*
X4644388Y1171019D1*
X4686804Y1214763D2*
Y1163719D1*
Y1188034D2*
X4694104Y1195334D1*
X4698989Y1197749D1*
X4706289D1*
X4711118Y1195334D1*
X4713533Y1188034D1*
Y1163719D1*
X4741348Y1197749D2*
X4736519Y1195334D1*
X4731634Y1190449D1*
X4729219Y1183149D1*
Y1178319D1*
X4731634Y1171019D1*
X4736519Y1166190D1*
X4741348Y1163719D1*
X4748648D1*
X4753534Y1166190D1*
X4758363Y1171019D1*
X4760834Y1178319D1*
Y1183149D1*
X4758363Y1190449D1*
X4753534Y1195334D1*
X4748648Y1197749D1*
X4741348D1*
X4776520D2*
Y1163719D1*
Y1183149D2*
X4778991Y1190449D1*
X4783820Y1195334D1*
X4788706Y1197749D1*
X4796006D1*
X4818992Y1214763D2*
Y1173434D1*
X4821406Y1166190D1*
X4826292Y1163719D1*
X4831121D1*
X4811692Y1197749D2*
X4828706D1*
X5450631Y1188435D2*
X5448216Y1193321D1*
X5440916Y1195735D1*
X5433616D1*
X5426316Y1193321D1*
X5423902Y1188435D1*
X5426316Y1183606D1*
X5431202Y1181135D1*
X5443331Y1178721D1*
X5448216Y1176306D1*
X5450631Y1171421D1*
Y1169006D1*
X5448216Y1164177D1*
X5440916Y1161706D1*
X5433616D1*
X5426316Y1164177D1*
X5423902Y1169006D1*
X5466317Y1212750D2*
Y1161706D1*
Y1186021D2*
X5473617Y1193321D1*
X5478502Y1195735D1*
X5485802D1*
X5490632Y1193321D1*
X5493046Y1186021D1*
Y1161706D1*
X5520862Y1195735D2*
X5516033Y1193321D1*
X5511147Y1188435D1*
X5508733Y1181135D1*
Y1176306D1*
X5511147Y1169006D1*
X5516033Y1164177D1*
X5520862Y1161706D1*
X5528162D1*
X5533047Y1164177D1*
X5537876Y1169006D1*
X5540347Y1176306D1*
Y1181135D1*
X5537876Y1188435D1*
X5533047Y1193321D1*
X5528162Y1195735D1*
X5520862D1*
X5556033D2*
Y1161706D1*
Y1181135D2*
X5558504Y1188435D1*
X5563333Y1193321D1*
X5568219Y1195735D1*
X5575519D1*
X5598505Y1212750D2*
Y1171421D1*
X5600920Y1164177D1*
X5605805Y1161706D1*
X5610634D1*
X5591205Y1195735D2*
X5608220D1*
X5107471Y1200817D2*
Y1149773D1*
X5073442Y1200817D1*
Y1149773D1*
X5159601Y1188687D2*
X5157186Y1193517D1*
X5152301Y1198402D1*
X5147472Y1200817D1*
X5137757D1*
X5132872Y1198402D1*
X5128042Y1193517D1*
X5125572Y1188687D1*
X5123157Y1181387D1*
Y1169202D1*
X5125572Y1161958D1*
X5128042Y1157073D1*
X5132872Y1152244D1*
X5137757Y1149773D1*
X5147472D1*
X5152301Y1152244D1*
X5157186Y1157073D1*
X5159601Y1161958D1*
M02*
